<?xml version="1.0" encoding="utf-8"  standalone="no"?>
<!DOCTYPE svg PUBLIC "-//W3C//DTD SVG 1.1//EN"
 "http://www.w3.org/Graphics/SVG/1.1/DTD/svg11.dtd">
<svg 
 width="600" height="480"
 viewBox="0 0 600 480"
 xmlns="http://www.w3.org/2000/svg"
 xmlns:xlink="http://www.w3.org/1999/xlink"
>

<title>Gnuplot</title>
<desc>Produced by GNUPLOT 5.0 patchlevel 3 </desc>

<g id="gnuplot_canvas">

<rect x="0" y="0" width="600" height="480" fill="none"/>
<defs>

	<circle id='gpDot' r='0.5' stroke-width='0.5'/>
	<path id='gpPt0' stroke-width='0.222' stroke='currentColor' d='M-1,0 h2 M0,-1 v2'/>
	<path id='gpPt1' stroke-width='0.222' stroke='currentColor' d='M-1,-1 L1,1 M1,-1 L-1,1'/>
	<path id='gpPt2' stroke-width='0.222' stroke='currentColor' d='M-1,0 L1,0 M0,-1 L0,1 M-1,-1 L1,1 M-1,1 L1,-1'/>
	<rect id='gpPt3' stroke-width='0.222' stroke='currentColor' x='-1' y='-1' width='2' height='2'/>
	<rect id='gpPt4' stroke-width='0.222' stroke='currentColor' fill='currentColor' x='-1' y='-1' width='2' height='2'/>
	<circle id='gpPt5' stroke-width='0.222' stroke='currentColor' cx='0' cy='0' r='1'/>
	<use xlink:href='#gpPt5' id='gpPt6' fill='currentColor' stroke='none'/>
	<path id='gpPt7' stroke-width='0.222' stroke='currentColor' d='M0,-1.33 L-1.33,0.67 L1.33,0.67 z'/>
	<use xlink:href='#gpPt7' id='gpPt8' fill='currentColor' stroke='none'/>
	<use xlink:href='#gpPt7' id='gpPt9' stroke='currentColor' transform='rotate(180)'/>
	<use xlink:href='#gpPt9' id='gpPt10' fill='currentColor' stroke='none'/>
	<use xlink:href='#gpPt3' id='gpPt11' stroke='currentColor' transform='rotate(45)'/>
	<use xlink:href='#gpPt11' id='gpPt12' fill='currentColor' stroke='none'/>
	<path id='gpPt13' stroke-width='0.222' stroke='currentColor' d='M0,1.330 L1.265,0.411 L0.782,-1.067 L-0.782,-1.076 L-1.265,0.411 z'/>
	<use xlink:href='#gpPt13' id='gpPt14' fill='currentColor' stroke='none'/>
	<filter id='textbox' filterUnits='objectBoundingBox' x='0' y='0' height='1' width='1'>
	  <feFlood flood-color='white' flood-opacity='1' result='bgnd'/>
	  <feComposite in='SourceGraphic' in2='bgnd' operator='atop'/>
	</filter>
	<filter id='greybox' filterUnits='objectBoundingBox' x='0' y='0' height='1' width='1'>
	  <feFlood flood-color='lightgrey' flood-opacity='1' result='grey'/>
	  <feComposite in='SourceGraphic' in2='grey' operator='atop'/>
	</filter>
</defs>
<g fill="none" color="white" stroke="black" stroke-width="1.00" stroke-linecap="butt" stroke-linejoin="miter">
</g>
<g fill="none" color="black" stroke="currentColor" stroke-width="1.00" stroke-linecap="butt" stroke-linejoin="miter">
</g>
<g fill="none" color="black" stroke="black" stroke-width="0.50" stroke-linecap="butt" stroke-linejoin="miter">
</g>
<g fill="none" color="gray" stroke="currentColor" stroke-width="0.50" stroke-linecap="butt" stroke-linejoin="miter">
	<path stroke='gray' stroke-dasharray='2,4' class="gridline"  d='M71.9,422.4 L575.0,422.4  '/></g>
<g fill="none" color="gray" stroke="gray" stroke-width="1.00" stroke-linecap="butt" stroke-linejoin="miter">
</g>
<g fill="none" color="black" stroke="currentColor" stroke-width="1.00" stroke-linecap="butt" stroke-linejoin="miter">
	<path stroke='black'  d='M71.9,422.4 L80.9,422.4 M575.0,422.4 L566.0,422.4  '/>	<g transform="translate(63.6,426.9)" stroke="none" fill="black" font-family="Arial" font-size="12.00"  text-anchor="end">
		<text><tspan font-family="Arial" >-2</tspan></text>
	</g>
</g>
<g fill="none" color="black" stroke="currentColor" stroke-width="1.00" stroke-linecap="butt" stroke-linejoin="miter">
</g>
<g fill="none" color="black" stroke="black" stroke-width="0.50" stroke-linecap="butt" stroke-linejoin="miter">
</g>
<g fill="none" color="gray" stroke="currentColor" stroke-width="0.50" stroke-linecap="butt" stroke-linejoin="miter">
	<path stroke='gray' stroke-dasharray='2,4' class="gridline"  d='M71.9,369.8 L575.0,369.8  '/></g>
<g fill="none" color="gray" stroke="gray" stroke-width="1.00" stroke-linecap="butt" stroke-linejoin="miter">
</g>
<g fill="none" color="black" stroke="currentColor" stroke-width="1.00" stroke-linecap="butt" stroke-linejoin="miter">
	<path stroke='black'  d='M71.9,369.8 L80.9,369.8 M575.0,369.8 L566.0,369.8  '/>	<g transform="translate(63.6,374.3)" stroke="none" fill="black" font-family="Arial" font-size="12.00"  text-anchor="end">
		<text><tspan font-family="Arial" >-1.5</tspan></text>
	</g>
</g>
<g fill="none" color="black" stroke="currentColor" stroke-width="1.00" stroke-linecap="butt" stroke-linejoin="miter">
</g>
<g fill="none" color="black" stroke="black" stroke-width="0.50" stroke-linecap="butt" stroke-linejoin="miter">
</g>
<g fill="none" color="gray" stroke="currentColor" stroke-width="0.50" stroke-linecap="butt" stroke-linejoin="miter">
	<path stroke='gray' stroke-dasharray='2,4' class="gridline"  d='M71.9,317.2 L575.0,317.2  '/></g>
<g fill="none" color="gray" stroke="gray" stroke-width="1.00" stroke-linecap="butt" stroke-linejoin="miter">
</g>
<g fill="none" color="black" stroke="currentColor" stroke-width="1.00" stroke-linecap="butt" stroke-linejoin="miter">
	<path stroke='black'  d='M71.9,317.2 L80.9,317.2 M575.0,317.2 L566.0,317.2  '/>	<g transform="translate(63.6,321.7)" stroke="none" fill="black" font-family="Arial" font-size="12.00"  text-anchor="end">
		<text><tspan font-family="Arial" >-1</tspan></text>
	</g>
</g>
<g fill="none" color="black" stroke="currentColor" stroke-width="1.00" stroke-linecap="butt" stroke-linejoin="miter">
</g>
<g fill="none" color="black" stroke="black" stroke-width="0.50" stroke-linecap="butt" stroke-linejoin="miter">
</g>
<g fill="none" color="gray" stroke="currentColor" stroke-width="0.50" stroke-linecap="butt" stroke-linejoin="miter">
	<path stroke='gray' stroke-dasharray='2,4' class="gridline"  d='M71.9,264.6 L575.0,264.6  '/></g>
<g fill="none" color="gray" stroke="gray" stroke-width="1.00" stroke-linecap="butt" stroke-linejoin="miter">
</g>
<g fill="none" color="black" stroke="currentColor" stroke-width="1.00" stroke-linecap="butt" stroke-linejoin="miter">
	<path stroke='black'  d='M71.9,264.6 L80.9,264.6 M575.0,264.6 L566.0,264.6  '/>	<g transform="translate(63.6,269.1)" stroke="none" fill="black" font-family="Arial" font-size="12.00"  text-anchor="end">
		<text><tspan font-family="Arial" >-0.5</tspan></text>
	</g>
</g>
<g fill="none" color="black" stroke="currentColor" stroke-width="1.00" stroke-linecap="butt" stroke-linejoin="miter">
</g>
<g fill="none" color="black" stroke="black" stroke-width="0.50" stroke-linecap="butt" stroke-linejoin="miter">
</g>
<g fill="none" color="gray" stroke="currentColor" stroke-width="0.50" stroke-linecap="butt" stroke-linejoin="miter">
	<path stroke='gray' stroke-dasharray='2,4' class="gridline"  d='M71.9,211.9 L575.0,211.9  '/></g>
<g fill="none" color="gray" stroke="gray" stroke-width="1.00" stroke-linecap="butt" stroke-linejoin="miter">
</g>
<g fill="none" color="black" stroke="currentColor" stroke-width="1.00" stroke-linecap="butt" stroke-linejoin="miter">
	<path stroke='black'  d='M71.9,211.9 L80.9,211.9 M575.0,211.9 L566.0,211.9  '/>	<g transform="translate(63.6,216.4)" stroke="none" fill="black" font-family="Arial" font-size="12.00"  text-anchor="end">
		<text><tspan font-family="Arial" > 0</tspan></text>
	</g>
</g>
<g fill="none" color="black" stroke="currentColor" stroke-width="1.00" stroke-linecap="butt" stroke-linejoin="miter">
</g>
<g fill="none" color="black" stroke="black" stroke-width="0.50" stroke-linecap="butt" stroke-linejoin="miter">
</g>
<g fill="none" color="gray" stroke="currentColor" stroke-width="0.50" stroke-linecap="butt" stroke-linejoin="miter">
	<path stroke='gray' stroke-dasharray='2,4' class="gridline"  d='M71.9,159.3 L575.0,159.3  '/></g>
<g fill="none" color="gray" stroke="gray" stroke-width="1.00" stroke-linecap="butt" stroke-linejoin="miter">
</g>
<g fill="none" color="black" stroke="currentColor" stroke-width="1.00" stroke-linecap="butt" stroke-linejoin="miter">
	<path stroke='black'  d='M71.9,159.3 L80.9,159.3 M575.0,159.3 L566.0,159.3  '/>	<g transform="translate(63.6,163.8)" stroke="none" fill="black" font-family="Arial" font-size="12.00"  text-anchor="end">
		<text><tspan font-family="Arial" > 0.5</tspan></text>
	</g>
</g>
<g fill="none" color="black" stroke="currentColor" stroke-width="1.00" stroke-linecap="butt" stroke-linejoin="miter">
</g>
<g fill="none" color="black" stroke="black" stroke-width="0.50" stroke-linecap="butt" stroke-linejoin="miter">
</g>
<g fill="none" color="gray" stroke="currentColor" stroke-width="0.50" stroke-linecap="butt" stroke-linejoin="miter">
	<path stroke='gray' stroke-dasharray='2,4' class="gridline"  d='M71.9,106.7 L575.0,106.7  '/></g>
<g fill="none" color="gray" stroke="gray" stroke-width="1.00" stroke-linecap="butt" stroke-linejoin="miter">
</g>
<g fill="none" color="black" stroke="currentColor" stroke-width="1.00" stroke-linecap="butt" stroke-linejoin="miter">
	<path stroke='black'  d='M71.9,106.7 L80.9,106.7 M575.0,106.7 L566.0,106.7  '/>	<g transform="translate(63.6,111.2)" stroke="none" fill="black" font-family="Arial" font-size="12.00"  text-anchor="end">
		<text><tspan font-family="Arial" > 1</tspan></text>
	</g>
</g>
<g fill="none" color="black" stroke="currentColor" stroke-width="1.00" stroke-linecap="butt" stroke-linejoin="miter">
</g>
<g fill="none" color="black" stroke="black" stroke-width="0.50" stroke-linecap="butt" stroke-linejoin="miter">
</g>
<g fill="none" color="gray" stroke="currentColor" stroke-width="0.50" stroke-linecap="butt" stroke-linejoin="miter">
	<path stroke='gray' stroke-dasharray='2,4' class="gridline"  d='M71.9,54.1 L575.0,54.1  '/></g>
<g fill="none" color="gray" stroke="gray" stroke-width="1.00" stroke-linecap="butt" stroke-linejoin="miter">
</g>
<g fill="none" color="black" stroke="currentColor" stroke-width="1.00" stroke-linecap="butt" stroke-linejoin="miter">
	<path stroke='black'  d='M71.9,54.1 L80.9,54.1 M575.0,54.1 L566.0,54.1  '/>	<g transform="translate(63.6,58.6)" stroke="none" fill="black" font-family="Arial" font-size="12.00"  text-anchor="end">
		<text><tspan font-family="Arial" > 1.5</tspan></text>
	</g>
</g>
<g fill="none" color="black" stroke="currentColor" stroke-width="1.00" stroke-linecap="butt" stroke-linejoin="miter">
</g>
<g fill="none" color="black" stroke="black" stroke-width="0.50" stroke-linecap="butt" stroke-linejoin="miter">
</g>
<g fill="none" color="gray" stroke="currentColor" stroke-width="0.50" stroke-linecap="butt" stroke-linejoin="miter">
	<path stroke='gray' stroke-dasharray='2,4' class="gridline"  d='M71.9,422.4 L71.9,54.1  '/></g>
<g fill="none" color="gray" stroke="gray" stroke-width="1.00" stroke-linecap="butt" stroke-linejoin="miter">
</g>
<g fill="none" color="black" stroke="currentColor" stroke-width="1.00" stroke-linecap="butt" stroke-linejoin="miter">
	<path stroke='black'  d='M71.9,422.4 L71.9,413.4 M71.9,54.1 L71.9,63.1  '/>	<g transform="translate(71.9,444.9)" stroke="none" fill="black" font-family="Arial" font-size="12.00"  text-anchor="middle">
		<text><tspan font-family="Arial" >-1</tspan></text>
	</g>
</g>
<g fill="none" color="black" stroke="currentColor" stroke-width="1.00" stroke-linecap="butt" stroke-linejoin="miter">
</g>
<g fill="none" color="black" stroke="black" stroke-width="0.50" stroke-linecap="butt" stroke-linejoin="miter">
</g>
<g fill="none" color="gray" stroke="currentColor" stroke-width="0.50" stroke-linecap="butt" stroke-linejoin="miter">
	<path stroke='gray' stroke-dasharray='2,4' class="gridline"  d='M155.8,422.4 L155.8,81.1 M155.8,63.1 L155.8,54.1  '/></g>
<g fill="none" color="gray" stroke="gray" stroke-width="1.00" stroke-linecap="butt" stroke-linejoin="miter">
</g>
<g fill="none" color="black" stroke="currentColor" stroke-width="1.00" stroke-linecap="butt" stroke-linejoin="miter">
	<path stroke='black'  d='M155.8,422.4 L155.8,413.4 M155.8,54.1 L155.8,63.1  '/>	<g transform="translate(155.8,444.9)" stroke="none" fill="black" font-family="Arial" font-size="12.00"  text-anchor="middle">
		<text><tspan font-family="Arial" >-0.5</tspan></text>
	</g>
</g>
<g fill="none" color="black" stroke="currentColor" stroke-width="1.00" stroke-linecap="butt" stroke-linejoin="miter">
</g>
<g fill="none" color="black" stroke="black" stroke-width="0.50" stroke-linecap="butt" stroke-linejoin="miter">
</g>
<g fill="none" color="gray" stroke="currentColor" stroke-width="0.50" stroke-linecap="butt" stroke-linejoin="miter">
	<path stroke='gray' stroke-dasharray='2,4' class="gridline"  d='M239.6,422.4 L239.6,54.1  '/></g>
<g fill="none" color="gray" stroke="gray" stroke-width="1.00" stroke-linecap="butt" stroke-linejoin="miter">
</g>
<g fill="none" color="black" stroke="currentColor" stroke-width="1.00" stroke-linecap="butt" stroke-linejoin="miter">
	<path stroke='black'  d='M239.6,422.4 L239.6,413.4 M239.6,54.1 L239.6,63.1  '/>	<g transform="translate(239.6,444.9)" stroke="none" fill="black" font-family="Arial" font-size="12.00"  text-anchor="middle">
		<text><tspan font-family="Arial" > 0</tspan></text>
	</g>
</g>
<g fill="none" color="black" stroke="currentColor" stroke-width="1.00" stroke-linecap="butt" stroke-linejoin="miter">
</g>
<g fill="none" color="black" stroke="black" stroke-width="0.50" stroke-linecap="butt" stroke-linejoin="miter">
</g>
<g fill="none" color="gray" stroke="currentColor" stroke-width="0.50" stroke-linecap="butt" stroke-linejoin="miter">
	<path stroke='gray' stroke-dasharray='2,4' class="gridline"  d='M323.5,422.4 L323.5,54.1  '/></g>
<g fill="none" color="gray" stroke="gray" stroke-width="1.00" stroke-linecap="butt" stroke-linejoin="miter">
</g>
<g fill="none" color="black" stroke="currentColor" stroke-width="1.00" stroke-linecap="butt" stroke-linejoin="miter">
	<path stroke='black'  d='M323.5,422.4 L323.5,413.4 M323.5,54.1 L323.5,63.1  '/>	<g transform="translate(323.5,444.9)" stroke="none" fill="black" font-family="Arial" font-size="12.00"  text-anchor="middle">
		<text><tspan font-family="Arial" > 0.5</tspan></text>
	</g>
</g>
<g fill="none" color="black" stroke="currentColor" stroke-width="1.00" stroke-linecap="butt" stroke-linejoin="miter">
</g>
<g fill="none" color="black" stroke="black" stroke-width="0.50" stroke-linecap="butt" stroke-linejoin="miter">
</g>
<g fill="none" color="gray" stroke="currentColor" stroke-width="0.50" stroke-linecap="butt" stroke-linejoin="miter">
	<path stroke='gray' stroke-dasharray='2,4' class="gridline"  d='M407.3,422.4 L407.3,54.1  '/></g>
<g fill="none" color="gray" stroke="gray" stroke-width="1.00" stroke-linecap="butt" stroke-linejoin="miter">
</g>
<g fill="none" color="black" stroke="currentColor" stroke-width="1.00" stroke-linecap="butt" stroke-linejoin="miter">
	<path stroke='black'  d='M407.3,422.4 L407.3,413.4 M407.3,54.1 L407.3,63.1  '/>	<g transform="translate(407.3,444.9)" stroke="none" fill="black" font-family="Arial" font-size="12.00"  text-anchor="middle">
		<text><tspan font-family="Arial" > 1</tspan></text>
	</g>
</g>
<g fill="none" color="black" stroke="currentColor" stroke-width="1.00" stroke-linecap="butt" stroke-linejoin="miter">
</g>
<g fill="none" color="black" stroke="black" stroke-width="0.50" stroke-linecap="butt" stroke-linejoin="miter">
</g>
<g fill="none" color="gray" stroke="currentColor" stroke-width="0.50" stroke-linecap="butt" stroke-linejoin="miter">
	<path stroke='gray' stroke-dasharray='2,4' class="gridline"  d='M491.2,422.4 L491.2,54.1  '/></g>
<g fill="none" color="gray" stroke="gray" stroke-width="1.00" stroke-linecap="butt" stroke-linejoin="miter">
</g>
<g fill="none" color="black" stroke="currentColor" stroke-width="1.00" stroke-linecap="butt" stroke-linejoin="miter">
	<path stroke='black'  d='M491.2,422.4 L491.2,413.4 M491.2,54.1 L491.2,63.1  '/>	<g transform="translate(491.2,444.9)" stroke="none" fill="black" font-family="Arial" font-size="12.00"  text-anchor="middle">
		<text><tspan font-family="Arial" > 1.5</tspan></text>
	</g>
</g>
<g fill="none" color="black" stroke="currentColor" stroke-width="1.00" stroke-linecap="butt" stroke-linejoin="miter">
</g>
<g fill="none" color="black" stroke="black" stroke-width="0.50" stroke-linecap="butt" stroke-linejoin="miter">
</g>
<g fill="none" color="gray" stroke="currentColor" stroke-width="0.50" stroke-linecap="butt" stroke-linejoin="miter">
	<path stroke='gray' stroke-dasharray='2,4' class="gridline"  d='M575.0,422.4 L575.0,54.1  '/></g>
<g fill="none" color="gray" stroke="gray" stroke-width="1.00" stroke-linecap="butt" stroke-linejoin="miter">
</g>
<g fill="none" color="black" stroke="currentColor" stroke-width="1.00" stroke-linecap="butt" stroke-linejoin="miter">
	<path stroke='black'  d='M575.0,422.4 L575.0,413.4 M575.0,54.1 L575.0,63.1  '/>	<g transform="translate(575.0,444.9)" stroke="none" fill="black" font-family="Arial" font-size="12.00"  text-anchor="middle">
		<text><tspan font-family="Arial" > 2</tspan></text>
	</g>
</g>
<g fill="none" color="black" stroke="currentColor" stroke-width="1.00" stroke-linecap="butt" stroke-linejoin="miter">
</g>
<g fill="none" color="black" stroke="currentColor" stroke-width="1.00" stroke-linecap="butt" stroke-linejoin="miter">
	<path stroke='black'  d='M71.9,54.1 L71.9,422.4 L575.0,422.4 L575.0,54.1 L71.9,54.1 Z  '/></g>
<g fill="none" color="black" stroke="currentColor" stroke-width="1.00" stroke-linecap="butt" stroke-linejoin="miter">
	<g transform="translate(17.6,238.3) rotate(270)" stroke="none" fill="black" font-family="Arial" font-size="12.00"  text-anchor="middle">
		<text><tspan font-family="Arial" >y</tspan></text>
	</g>
</g>
<g fill="none" color="black" stroke="currentColor" stroke-width="1.00" stroke-linecap="butt" stroke-linejoin="miter">
	<g transform="translate(323.4,471.9)" stroke="none" fill="black" font-family="Arial" font-size="12.00"  text-anchor="middle">
		<text><tspan font-family="Arial" >x</tspan></text>
	</g>
</g>
<g fill="none" color="black" stroke="currentColor" stroke-width="1.00" stroke-linecap="butt" stroke-linejoin="miter">
	<g transform="translate(323.4,31.6)" stroke="none" fill="black" font-family="Arial" font-size="12.00"  text-anchor="middle">
		<text><tspan font-family="Arial" >precession orbit</tspan></text>
	</g>
</g>
	<g id="gnuplot_plot_1" ><title>gnuplot_plot_1</title>
<g fill="none" color="black" stroke="currentColor" stroke-width="1.00" stroke-linecap="butt" stroke-linejoin="miter">
	<path stroke='rgb(148,   0, 211)'  d='M239.6,106.7 L248.2,104.2 L257.2,101.7 L266.7,99.5 L276.6,97.5 L286.9,95.6 L297.7,94.0 L309.0,92.7
		L320.6,91.7 L332.7,91.0 L345.2,90.6 L358.1,90.7 L371.3,91.2 L384.8,92.1 L398.5,93.5 L412.5,95.5
		L426.5,98.0 L440.6,101.2 L454.6,104.9 L468.4,109.3 L481.8,114.3 L494.9,120.1 L507.4,126.4 L519.1,133.4
		L530.0,141.1 L539.9,149.3 L548.6,158.1 L556.1,167.4 L562.1,177.0 L566.7,187.0 L569.7,197.3 L571.0,207.6
		L570.8,218.0 L568.9,228.3 L565.4,238.5 L560.3,248.4 L553.8,257.9 L546.0,267.1 L536.9,275.7 L526.7,283.7
		L515.6,291.2 L503.6,298.0 L491.0,304.2 L477.9,309.7 L464.3,314.6 L450.5,318.8 L436.6,322.4 L422.6,325.4
		L408.7,327.8 L394.9,329.6 L381.2,330.9 L367.9,331.8 L354.9,332.2 L342.2,332.1 L329.9,331.7 L317.9,331.0
		L306.5,329.9 L295.4,328.6 L284.8,327.0 L274.6,325.1 L264.9,323.1 L255.5,320.9 L246.7,318.5 L238.2,315.9
		L230.2,313.2 L222.5,310.5 L215.3,307.6 L208.4,304.6 L201.9,301.5 L195.7,298.4 L189.9,295.2 L184.4,292.0
		L179.2,288.7 L174.4,285.4 L169.8,282.0 L165.6,278.6 L161.6,275.2 L157.8,271.8 L154.4,268.4 L151.1,264.9
		L148.2,261.5 L145.4,258.0 L142.9,254.6 L140.6,251.1 L138.6,247.6 L136.7,244.1 L135.1,240.6 L133.6,237.2
		L132.4,233.7 L131.3,230.2 L130.5,226.7 L129.8,223.2 L129.4,219.7 L129.1,216.3 L129.0,212.8 L129.1,209.3
		L129.4,205.9 L129.8,202.4 L130.5,198.9 L131.3,195.5 L132.3,192.0 L133.6,188.6 L135.0,185.1 L136.6,181.7
		L138.4,178.3 L140.4,174.9 L142.7,171.4 L145.1,168.0 L147.8,164.6 L150.7,161.2 L153.8,157.9 L157.2,154.5
		L160.8,151.2 L164.7,147.9 L168.8,144.6 L173.2,141.3 L177.9,138.1 L182.8,134.9 L188.1,131.8 L193.7,128.7
		L199.6,125.7 L205.8,122.7 L212.4,119.8 L219.3,117.0 L226.6,114.3 L234.3,111.7 L242.4,109.2 L250.8,106.8
		L259.7,104.6 L268.9,102.6 L278.6,100.8 L288.7,99.1 L299.3,97.7 L310.2,96.6 L321.6,95.7 L333.4,95.2
		L345.5,95.0 L358.0,95.2 L370.9,95.8 L384.0,96.8 L397.4,98.3 L411.0,100.3 L424.7,102.9 L438.5,106.0
		L452.2,109.7 L465.7,114.0 L479.0,119.0 L491.9,124.6 L504.4,130.9 L516.1,137.8 L527.1,145.3 L537.1,153.4
		L546.1,162.0 L553.8,171.2 L560.2,180.7 L565.2,190.6 L568.7,200.8 L570.5,211.1 L570.8,221.5 L569.4,231.9
		L566.3,242.1 L561.7,252.1 L555.6,261.7 L548.1,271.0 L539.3,279.7 L529.3,287.9 L518.2,295.5 L506.3,302.5
		L493.7,308.8 L480.4,314.4 L466.7,319.4 L452.7,323.7 L438.5,327.3 L424.2,330.3 L409.9,332.6 L395.8,334.4
		L381.8,335.7 L368.1,336.4 L354.7,336.7 L341.7,336.6 L329.0,336.0 L316.8,335.1 L305.0,333.9 L293.7,332.3
		L282.8,330.5 L272.4,328.5 L262.4,326.2 L253.0,323.8 L243.9,321.2 L235.3,318.4 L227.2,315.5 L219.4,312.5
		L212.1,309.4 L205.2,306.2 L198.6,303.0 L192.5,299.7 L186.7,296.3 L181.2,292.9 L176.1,289.4 L171.3,285.9
		L166.8,282.4 L162.6,278.9 L158.7,275.4 L155.1,271.8 L151.7,268.2 L148.6,264.7 L145.8,261.1 L143.2,257.5
		L140.8,254.0 L138.7,250.4 L136.7,246.8 L135.1,243.3 L133.6,239.7 L132.3,236.2 L131.2,232.6 L130.3,229.1
		L129.7,225.6 L129.2,222.1 L128.9,218.6 L128.8,215.1 L128.9,211.6 L129.1,208.2 L129.6,204.7 L130.2,201.3
		L131.1,197.8 L132.1,194.4 L133.3,191.0 L134.7,187.6 L136.3,184.2 L138.0,180.8 L140.0,177.4 L142.2,174.1
		L144.6,170.8 L147.2,167.4 L150.0,164.1 L153.0,160.9 L156.2,157.6 L159.7,154.4 L163.4,151.2 L167.4,148.0
		L171.6,144.8 L176.1,141.7 L180.8,138.7 L185.8,135.6 L191.1,132.7 L196.7,129.7 L202.6,126.9 L208.8,124.1
		L215.4,121.4 L222.2,118.8 L229.5,116.3 L237.0,113.8 L245.0,111.6 L253.3,109.4 L262.0,107.4 L271.1,105.6
		L280.6,103.9 L290.4,102.5 L300.7,101.3 L311.4,100.3 L322.5,99.7 L333.9,99.3 L345.7,99.2 L357.9,99.6
		L370.4,100.3 L383.1,101.4 L396.2,103.0 L409.4,105.0 L422.7,107.6 L436.1,110.7 L449.5,114.4 L462.8,118.7
		L475.9,123.6 L488.7,129.2 L500.9,135.3 L512.7,142.1 L523.7,149.5 L533.8,157.4 L542.9,165.9 L550.9,174.9
		L557.6,184.4 L563.0,194.2 L566.9,204.3 L569.2,214.6 L569.9,225.0 L569.0,235.4 L566.5,245.6 L562.3,255.7
		L556.6,265.5 L549.5,274.8 L541.0,283.7 L531.2,292.1 L520.3,299.8 L508.5,307.0 L495.9,313.4 L482.5,319.1
		L468.7,324.2 L454.5,328.5 L440.1,332.2 L425.5,335.2 L411.0,337.6 L396.5,339.3 L382.2,340.5 L368.2,341.2
		L354.4,341.4 L341.0,341.1 L328.1,340.4 L315.5,339.3 L303.4,337.9 L291.8,336.2 L280.7,334.2 L270.1,331.9
		L259.9,329.4 L250.2,326.8 L241.0,323.9 L232.3,321.0 L224.0,317.9 L216.2,314.6 L208.8,311.3 L201.8,307.9
		L195.3,304.5 L189.1,301.0 L183.3,297.4 L177.9,293.8 L172.8,290.2 L168.0,286.5 L163.6,282.8 L159.5,279.2
		L155.7,275.5 L152.2,271.8 L148.9,268.1 L146.0,264.4 L143.3,260.7 L140.8,257.0 L138.6,253.4 L136.6,249.7
		L134.8,246.1 L133.3,242.4 L132.0,238.8 L130.9,235.2 L130.0,231.6 L129.3,228.1 L128.8,224.5 L128.5,221.0
		L128.4,217.5 L128.4,213.9 L128.7,210.5 L129.2,207.0 L129.8,203.5 L130.6,200.1 L131.6,196.7 L132.8,193.3
		L134.2,189.9 L135.7,186.6 L137.5,183.2 L139.4,179.9 L141.6,176.6 L143.9,173.3 L146.4,170.1 L149.1,166.9
		L152.1,163.7 L155.2,160.5 L158.6,157.3 L162.2,154.2 L166.0,151.1 L170.0,148.1 L174.3,145.1 L178.8,142.1
		L183.6,139.2 L188.7,136.3 L194.0,133.5 L199.6,130.7 L205.5,128.1 L211.7,125.4 L218.2,122.9 L225.0,120.5
		L232.2,118.2 L239.7,115.9 L247.5,113.9 L255.7,111.9 L264.2,110.1 L273.1,108.5 L282.4,107.0 L292.0,105.8
		L302.0,104.7 L312.4,104.0 L323.2,103.5 L334.3,103.2 L345.8,103.3 L357.6,103.8 L369.7,104.6 L382.1,105.9
		L394.8,107.5 L407.6,109.6 L420.6,112.3 L433.7,115.4 L446.7,119.1 L459.7,123.3 L472.5,128.2 L485.1,133.6
		L497.2,139.7 L508.8,146.4 L519.8,153.6 L529.9,161.5 L539.2,169.8 L547.4,178.7 L554.4,188.1 L560.0,197.8
		L564.3,207.8 L567.1,218.0 L568.3,228.4 L567.8,238.8 L565.8,249.1 L562.1,259.3 L556.9,269.1 L550.1,278.6
		L542.0,287.6 L532.5,296.2 L521.8,304.1 L510.2,311.3 L497.6,317.9 L484.3,323.8 L470.4,329.0 L456.1,333.4
		L441.4,337.1 L426.6,340.2 L411.8,342.6 L397.0,344.3 L382.4,345.5 L368.0,346.1 L354.0,346.1 L340.3,345.7
		L327.0,344.9 L314.1,343.6 L301.7,342.0 L289.8,340.1 L278.4,337.9 L267.6,335.4 L257.2,332.8 L247.3,329.9
		L238.0,326.8 L229.1,323.6 L220.7,320.3 L212.8,316.9 L205.4,313.3 L198.3,309.7 L191.7,306.0 L185.6,302.3
		L179.8,298.6 L174.4,294.8 L169.4,291.0 L164.7,287.1 L160.3,283.3 L156.3,279.4 L152.6,275.6 L149.2,271.8
		L146.1,267.9 L143.2,264.1 L140.7,260.3 L138.3,256.5 L136.3,252.8 L134.5,249.0 L132.9,245.3 L131.5,241.6
		L130.4,237.9 L129.4,234.2 L128.7,230.6 L128.2,227.0 L127.9,223.4 L127.7,219.8 L127.8,216.3 L128.1,212.8
		L128.5,209.3 L129.1,205.8 L129.9,202.4 L130.9,199.0 L132.1,195.6 L133.5,192.2 L135.0,188.9 L136.7,185.6
		L138.7,182.3 L140.8,179.0 L143.0,175.8 L145.5,172.6 L148.2,169.4 L151.0,166.3 L154.1,163.1 L157.4,160.1
		L160.8,157.0 L164.5,154.0 L168.4,151.1 L172.6,148.1 L176.9,145.3 L181.5,142.4 L186.4,139.7 L191.5,136.9
		L196.8,134.3 L202.4,131.7 L208.3,129.2 L214.5,126.7 L221.0,124.4 L227.7,122.1 L234.8,120.0 L242.2,118.0
		L249.9,116.1 L257.9,114.3 L266.3,112.7 L275.0,111.2 L284.1,110.0 L293.5,108.9 L303.3,108.1 L313.4,107.5
		L323.9,107.1 L334.7,107.1 L345.8,107.3 L357.3,107.9 L369.0,108.8 L381.1,110.2 L393.3,111.9 L405.8,114.1
		L418.4,116.8 L431.1,119.9 L443.8,123.6 L456.4,127.9 L468.9,132.7 L481.2,138.0 L493.1,144.0 L504.6,150.6
		L515.5,157.7 L525.6,165.4 L534.9,173.7 L543.2,182.5 L550.4,191.7 L556.4,201.3 L561.0,211.2 L564.2,221.4
		L565.8,231.7 L565.9,242.1 L564.3,252.5 L561.1,262.7 L556.3,272.7 L550.0,282.3 L542.2,291.4 L533.1,300.1
		L522.7,308.2 L511.2,315.6 L498.8,322.4 L485.5,328.4 L471.6,333.7 L457.2,338.2 L442.4,342.1 L427.5,345.2
		L412.4,347.6 L397.3,349.3 L382.4,350.4 L367.7,351.0 L353.3,351.0 L339.3,350.4 L325.7,349.5 L312.5,348.1
		L299.9,346.3 L287.7,344.2 L276.0,341.8 L264.9,339.1 L254.3,336.2 L244.3,333.1 L234.8,329.8 L225.8,326.4
		L217.3,322.8 L209.3,319.1 L201.8,315.4 L194.7,311.6 L188.1,307.7 L181.9,303.7 L176.1,299.8 L170.8,295.8
		L165.8,291.8 L161.2,287.8 L156.9,283.8 L153.0,279.8 L149.4,275.8 L146.1,271.8 L143.1,267.8 L140.4,263.9
		L138.0,259.9 L135.8,256.0 L133.9,252.2 L132.2,248.3 L130.8,244.5 L129.6,240.7 L128.6,237.0 L127.9,233.3
		L127.3,229.6 L127.0,225.9 L126.9,222.3 L126.9,218.7 L127.2,215.1 L127.6,211.6 L128.2,208.1 L129.0,204.6
		L130.0,201.2 L131.2,197.8 L132.6,194.4 L134.1,191.1 L135.8,187.8 L137.7,184.5 L139.8,181.3 L142.0,178.1
		L144.5,174.9 L147.1,171.8 L149.9,168.7 L152.9,165.7 L156.1,162.6 L159.5,159.7 L163.0,156.7 L166.8,153.8
		L170.8,151.0 L175.0,148.2 L179.5,145.4 L184.1,142.7 L189.0,140.1 L194.2,137.5 L199.5,135.0 L205.2,132.6
		L211.0,130.2 L217.2,128.0 L223.6,125.8 L230.3,123.7 L237.3,121.8 L244.6,119.9 L252.2,118.2 L260.1,116.6
		L268.3,115.2 L276.8,113.9 L285.7,112.8 L294.9,112.0 L304.4,111.3 L314.3,110.9 L324.5,110.7 L335.0,110.8
		L345.8,111.2 L356.9,111.9 L368.3,112.9 L379.9,114.4 L391.8,116.2 L403.8,118.5 L416.0,121.2 L428.3,124.4
		L440.7,128.1 L453.0,132.3 L465.2,137.0 L477.1,142.4 L488.8,148.3 L500.1,154.7 L510.8,161.8 L520.9,169.4
		L530.2,177.5 L538.6,186.1 L545.9,195.2 L552.1,204.7 L557.0,214.6 L560.5,224.7 L562.6,235.0 L563.1,245.4
		L562.0,255.8 L559.3,266.0 L555.0,276.1 L549.1,285.8 L541.8,295.1 L533.0,303.9 L522.9,312.2 L511.7,319.8
		L499.4,326.7 L486.3,332.9 L472.4,338.3 L458.0,343.0 L443.1,347.0 L427.9,350.1 L412.7,352.6 L397.4,354.4
		L382.2,355.5 L367.2,355.9 L352.5,355.9 L338.2,355.2 L324.2,354.1 L310.8,352.6 L297.8,350.6 L285.4,348.3
		L273.5,345.7 L262.1,342.8 L251.3,339.7 L241.1,336.4 L231.4,332.8 L222.3,329.2 L213.7,325.4 L205.6,321.5
		L198.0,317.5 L190.9,313.4 L184.3,309.3 L178.1,305.2 L172.3,301.0 L167.0,296.8 L162.1,292.6 L157.5,288.4
		L153.4,284.2 L149.5,280.1 L146.0,275.9 L142.9,271.8 L140.0,267.7 L137.4,263.6 L135.2,259.6 L133.2,255.5
		L131.4,251.6 L129.9,247.6 L128.7,243.7 L127.6,239.9 L126.8,236.0 L126.3,232.3 L125.9,228.5 L125.8,224.8
		L125.8,221.2 L126.0,217.5 L126.5,214.0 L127.1,210.4 L127.9,206.9 L128.9,203.4 L130.1,200.0 L131.4,196.6
		L133.0,193.3 L134.7,190.0 L136.5,186.7 L138.6,183.5 L140.8,180.3 L143.2,177.2 L145.8,174.1 L148.6,171.0
		L151.5,168.0 L154.7,165.0 L158.0,162.1 L161.5,159.2 L165.2,156.4 L169.1,153.6 L173.1,150.9 L177.4,148.2
		L181.9,145.6 L186.7,143.0 L191.6,140.5 L196.8,138.1 L202.2,135.7 L207.8,133.5 L213.7,131.3 L219.8,129.2
		L226.2,127.2 L232.8,125.3 L239.7,123.5 L246.9,121.8 L254.4,120.2 L262.2,118.8 L270.2,117.6 L278.6,116.5
		L287.2,115.6 L296.2,114.9 L305.5,114.4 L315.1,114.1 L325.0,114.1 L335.2,114.3 L345.6,114.9 L356.4,115.7
		L367.4,116.9 L378.7,118.4 L390.2,120.4 L401.8,122.7 L413.6,125.4 L425.5,128.7 L437.5,132.4 L449.4,136.6
		L461.3,141.3 L472.9,146.6 L484.3,152.4 L495.3,158.8 L505.9,165.7 L515.9,173.2 L525.1,181.2 L533.5,189.7
		L540.9,198.7 L547.3,208.1 L552.4,217.9 L556.2,227.9 L558.6,238.1 L559.5,248.5 L558.9,258.9 L556.7,269.2
		L552.9,279.3 L547.5,289.1 L540.6,298.6 L532.2,307.5 L522.5,316.0 L511.5,323.8 L499.5,330.9 L486.5,337.2
		L472.7,342.9 L458.3,347.7 L443.3,351.8 L428.1,355.0 L412.6,357.6 L397.2,359.4 L381.7,360.5 L366.5,360.9
		L351.5,360.8 L336.8,360.1 L322.6,358.9 L308.8,357.2 L295.6,355.1 L282.9,352.6 L270.7,349.8 L259.1,346.7
		L248.1,343.3 L237.7,339.7 L227.9,336.0 L218.6,332.1 L209.9,328.0 L201.7,323.9 L194.1,319.7 L186.9,315.4
		L180.3,311.1 L174.1,306.7 L168.4,302.3 L163.1,297.9 L158.2,293.5 L153.8,289.1 L149.7,284.8 L145.9,280.4
		L142.6,276.1 L139.5,271.8 L136.8,267.6 L134.4,263.3 L132.3,259.2 L130.4,255.0 L128.8,251.0 L127.5,246.9
		L126.4,242.9 L125.6,239.0 L125.0,235.1 L124.6,231.3 L124.4,227.5 L124.5,223.7 L124.7,220.0 L125.1,216.4
		L125.7,212.8 L126.6,209.2 L127.5,205.7 L128.7,202.2 L130.1,198.8 L131.6,195.5 L133.3,192.1 L135.2,188.9
		L137.2,185.7 L139.5,182.5 L141.8,179.3 L144.4,176.3 L147.1,173.2 L150.0,170.2 L153.1,167.3 L156.4,164.4
		L159.8,161.6 L163.4,158.8 L167.2,156.1 L171.2,153.4 L175.4,150.8 L179.8,148.2 L184.3,145.7 L189.1,143.3
		L194.1,140.9 L199.3,138.6 L204.7,136.4 L210.3,134.3 L216.2,132.3 L222.3,130.3 L228.6,128.5 L235.2,126.7
		L242.1,125.1 L249.1,123.6 L256.5,122.2 L264.1,121.0 L272.1,119.9 L280.2,119.0 L288.7,118.2 L297.5,117.7
		L306.5,117.4 L315.8,117.3 L325.4,117.4 L335.3,117.8 L345.5,118.4 L355.9,119.4 L366.5,120.7 L377.4,122.3
		L388.5,124.4 L399.8,126.8 L411.2,129.6 L422.7,132.8 L434.2,136.5 L445.8,140.7 L457.2,145.5 L468.6,150.7
		L479.6,156.4 L490.4,162.7 L500.7,169.6 L510.5,176.9 L519.7,184.8 L528.0,193.2 L535.5,202.1 L542.0,211.4
		L547.3,221.0 L551.3,231.0 L554.0,241.1 L555.3,251.5 L555.1,261.8 L553.3,272.2 L549.9,282.3 L545.0,292.3
		L538.6,301.8 L530.6,311.0 L521.3,319.6 L510.7,327.5 L498.9,334.8 L486.1,341.4 L472.5,347.2 L458.1,352.2
		L443.2,356.4 L427.8,359.8 L412.3,362.5 L396.6,364.3 L381.0,365.5 L365.5,365.9 L350.2,365.7 L335.3,365.0
		L320.8,363.6 L306.7,361.8 L293.2,359.5 L280.2,356.9 L267.8,353.9 L256.0,350.6 L244.7,347.0 L234.1,343.2
		L224.1,339.2 L214.7,335.1 L205.9,330.8 L197.6,326.4 L189.9,321.9 L182.8,317.4 L176.1,312.8 L169.9,308.2
		L164.2,303.6 L159.0,299.0 L154.2,294.4 L149.8,289.8 L145.8,285.3 L142.2,280.8 L139.0,276.3 L136.1,271.8
		L133.5,267.4 L131.2,263.1 L129.2,258.8 L127.6,254.5 L126.2,250.3 L125.0,246.2 L124.1,242.1 L123.5,238.1
		L123.0,234.1 L122.8,230.2 L122.9,226.4 L123.1,222.6 L123.5,218.9 L124.1,215.2 L124.9,211.6 L125.9,208.0
		L127.1,204.5 L128.5,201.0 L130.0,197.6 L131.7,194.3 L133.6,191.0 L135.7,187.7 L137.9,184.6 L140.3,181.4
		L142.8,178.3 L145.5,175.3 L148.4,172.3 L151.5,169.4 L154.7,166.6 L158.1,163.8 L161.6,161.0 L165.3,158.3
		L169.2,155.7 L173.3,153.1 L177.6,150.6 L182.0,148.2 L186.7,145.8 L191.5,143.5 L196.5,141.3 L201.7,139.1
		L207.2,137.1 L212.8,135.1 L218.6,133.2 L224.7,131.4 L231.0,129.7 L237.5,128.1 L244.3,126.6 L251.3,125.3
		L258.5,124.1 L266.0,123.0 L273.8,122.1 L281.8,121.4 L290.1,120.8 L298.6,120.4 L307.4,120.2 L316.5,120.3
		L325.8,120.6 L335.4,121.1 L345.2,121.9 L355.3,123.0 L365.6,124.4 L376.1,126.1 L386.8,128.2 L397.7,130.7
		L408.7,133.6 L419.8,136.8 L430.9,140.6 L442.1,144.8 L453.2,149.5 L464.1,154.6 L474.9,160.3 L485.3,166.6
		L495.4,173.3 L505.0,180.6 L514.0,188.3 L522.2,196.6 L529.7,205.3 L536.2,214.5 L541.6,224.0 L545.9,233.9
		L548.8,244.0 L550.4,254.3 L550.6,264.6 L549.2,275.0 L546.3,285.2 L541.8,295.2 L535.8,304.9 L528.3,314.2
		L519.4,322.9 L509.2,331.1 L497.7,338.6 L485.1,345.4 L471.7,351.4 L457.4,356.6 L442.5,361.0 L427.2,364.5
		L411.5,367.3 L395.7,369.2 L379.9,370.4 L364.2,370.9 L348.7,370.7 L333.5,369.8 L318.7,368.4 L304.4,366.5
		L290.5,364.1 L277.3,361.3 L264.6,358.1 L252.6,354.6 L241.2,350.8 L230.4,346.7 L220.2,342.5 L210.7,338.1
		L201.7,333.6 L193.4,329.0 L185.6,324.2 L178.4,319.5 L171.7,314.7 L165.6,309.8 L159.9,305.0 L154.8,300.2
		L150.0,295.4 L145.7,290.6 L141.8,285.8 L138.3,281.1 L135.2,276.5 L132.4,271.9 L130.0,267.3 L127.9,262.8
		L126.1,258.4 L124.6,254.0 L123.4,249.7 L122.4,245.5 L121.7,241.3 L121.2,237.2 L121.0,233.2 L121.0,229.2
		L121.2,225.3 L121.6,221.5 L122.3,217.7 L123.1,214.0 L124.1,210.3 L125.3,206.8 L126.7,203.2 L128.2,199.8
		L129.9,196.4 L131.8,193.1 L133.9,189.8 L136.1,186.6 L138.5,183.4 L141.0,180.4 L143.7,177.3 L146.6,174.4
		L149.6,171.5 L152.8,168.6 L156.2,165.8 L159.7,163.1 L163.3,160.4 L167.2,157.8 L171.2,155.3 L175.4,152.9
		L179.7,150.5 L184.2,148.1 L188.9,145.9 L193.8,143.7 L198.9,141.6 L204.1,139.6 L209.5,137.7 L215.2,135.8
		L221.0,134.1 L227.1,132.4 L233.3,130.9 L239.8,129.5 L246.5,128.1 L253.4,127.0 L260.5,125.9 L267.9,125.0
		L275.5,124.3 L283.3,123.7 L291.4,123.2 L299.7,123.0 L308.3,123.0 L317.1,123.2 L326.2,123.6 L335.5,124.3
		L345.0,125.2 L354.7,126.4 L364.7,127.9 L374.8,129.8 L385.1,131.9 L395.6,134.5 L406.2,137.4 L416.9,140.7
		L427.6,144.5 L438.4,148.7 L449.1,153.3 L459.6,158.5 L470.0,164.1 L480.1,170.3 L489.9,176.9 L499.2,184.1
		L508.0,191.7 L516.2,199.9 L523.5,208.5 L530.0,217.5 L535.5,226.9 L539.9,236.7 L543.1,246.7 L545.0,256.9
		L545.4,267.2 L544.4,277.6 L541.9,287.8 L537.9,297.9 L532.4,307.7 L525.3,317.1 L516.8,326.0 L506.9,334.4
		L495.8,342.1 L483.6,349.1 L470.3,355.3 L456.2,360.7 L441.4,365.3 L426.1,369.0 L410.4,371.9 L394.5,374.0
		L378.5,375.2 L362.6,375.8 L346.9,375.6 L331.4,374.7 L316.4,373.2 L301.8,371.2 L287.7,368.7 L274.2,365.7
		L261.3,362.3 L249.0,358.6 L237.4,354.6 L226.4,350.3 L216.1,345.9 L206.4,341.2 L197.4,336.5 L188.9,331.6
		L181.1,326.6 L173.9,321.6 L167.2,316.5 L161.1,311.5 L155.4,306.4 L150.3,301.4 L145.7,296.3 L141.5,291.3
		L137.7,286.4 L134.3,281.5 L131.3,276.7 L128.7,271.9 L126.4,267.2 L124.5,262.5 L122.8,258.0 L121.5,253.5
		L120.5,249.1 L119.7,244.7 L119.2,240.5 L118.9,236.3 L118.9,232.2 L119.1,228.1 L119.5,224.2 L120.1,220.3
		L120.9,216.5 L122.0,212.8 L123.2,209.1 L124.6,205.5 L126.1,202.0 L127.9,198.5 L129.8,195.2 L131.8,191.8
		L134.1,188.6 L136.5,185.4 L139.0,182.3 L141.7,179.3 L144.6,176.3 L147.6,173.4 L150.8,170.6 L154.1,167.8
		L157.6,165.1 L161.2,162.4 L165.0,159.9 L169.0,157.4 L173.1,154.9 L177.3,152.6 L181.8,150.3 L186.4,148.1
		L191.1,145.9 L196.0,143.9 L201.1,141.9 L206.4,140.0 L211.9,138.2 L217.5,136.5 L223.3,134.9 L229.3,133.4
		L235.5,132.0 L241.9,130.7 L248.6,129.6 L255.4,128.6 L262.4,127.7 L269.6,126.9 L277.1,126.3 L284.8,125.9
		L292.7,125.6 L300.8,125.5 L309.1,125.7 L317.7,126.0 L326.5,126.5 L335.5,127.3 L344.7,128.4 L354.1,129.7
		L363.7,131.3 L373.5,133.3 L383.4,135.5 L393.5,138.1 L403.7,141.1 L414.0,144.4 L424.3,148.2 L434.7,152.4
		L444.9,157.1 L455.1,162.2 L465.1,167.8 L474.9,173.8 L484.4,180.4 L493.4,187.4 L502.0,195.0 L509.9,203.0
		L517.2,211.5 L523.6,220.4 L529.1,229.7 L533.5,239.3 L536.9,249.2 L538.9,259.4 L539.7,269.6 L539.0,280.0
		L536.9,290.2 L533.3,300.4 L528.2,310.2 L521.6,319.8 L513.5,328.9 L504.0,337.4 L493.3,345.3 L481.3,352.5
		L468.3,358.9 L454.4,364.6 L439.8,369.4 L424.5,373.3 L408.8,376.4 L392.9,378.6 L376.8,379.9 L360.7,380.5
		L344.8,380.4 L329.1,379.5 L313.8,378.0 L299.0,375.9 L284.6,373.3 L270.9,370.1 L257.7,366.6 L245.2,362.7
		L233.4,358.5 L222.2,354.0 L211.7,349.3 L201.9,344.4 L192.8,339.4 L184.3,334.3 L176.4,329.0 L169.1,323.8
		L162.4,318.5 L156.3,313.2 L150.8,307.9 L145.7,302.6 L141.1,297.3 L137.0,292.1 L133.3,287.0 L130.1,281.9
		L127.2,276.9 L124.8,271.9 L122.7,267.1 L120.9,262.3 L119.5,257.6 L118.3,253.0 L117.5,248.4 L116.9,244.0
		L116.6,239.6 L116.5,235.3 L116.7,231.2 L117.1,227.1 L117.7,223.1 L118.5,219.1 L119.6,215.3 L120.8,211.5
		L122.2,207.8 L123.8,204.2 L125.5,200.7 L127.5,197.3 L129.6,193.9 L131.8,190.6 L134.3,187.4 L136.8,184.2
		L139.5,181.2 L142.4,178.2 L145.4,175.3 L148.6,172.4 L151.9,169.6 L155.4,166.9 L159.0,164.3 L162.8,161.7
		L166.7,159.2 L170.7,156.8 L174.9,154.5 L179.3,152.2 L183.8,150.1 L188.4,148.0 L193.3,145.9 L198.2,144.0
		L203.4,142.2 L208.7,140.4 L214.1,138.7 L219.8,137.2 L225.6,135.7 L231.5,134.4 L237.7,133.1 L244.1,132.0
		L250.6,131.0 L257.3,130.1 L264.2,129.3 L271.3,128.7 L278.7,128.3 L286.2,128.0 L293.9,127.9 L301.8,127.9
		L309.9,128.2 L318.2,128.7 L326.8,129.4 L335.5,130.3 L344.4,131.4 L353.5,132.9 L362.8,134.6 L372.2,136.6
		L381.8,138.9 L391.4,141.6 L401.2,144.6 L411.1,148.0 L421.0,151.8 L430.9,156.0 L440.8,160.7 L450.6,165.7
		L460.2,171.3 L469.6,177.3 L478.7,183.7 L487.5,190.7 L495.8,198.1 L503.5,206.0 L510.6,214.4 L516.9,223.1
		L522.4,232.3 L526.8,241.8 L530.3,251.6 L532.5,261.7 L533.5,271.9 L533.1,282.1 L531.3,292.4 L528.1,302.6
		L523.4,312.5 L517.2,322.2 L509.5,331.4 L500.5,340.1 L490.1,348.2 L478.5,355.6 L465.8,362.3 L452.1,368.1
		L437.6,373.2 L422.5,377.3 L406.8,380.6 L390.8,382.9 L374.7,384.5 L358.5,385.2 L342.4,385.1 L326.5,384.2
		L311.0,382.7 L295.9,380.5 L281.3,377.8 L267.3,374.6 L254.0,370.9 L241.2,366.8 L229.2,362.4 L217.8,357.7
		L207.2,352.8 L197.2,347.7 L188.0,342.4 L179.4,337.0 L171.5,331.5 L164.2,326.0 L157.5,320.4 L151.4,314.9
		L145.9,309.3 L140.9,303.8 L136.4,298.3 L132.4,292.9 L128.8,287.6 L125.7,282.3 L123.0,277.1 L120.7,272.0
		L118.8,266.9 L117.2,262.0 L115.9,257.1 L115.0,252.4 L114.3,247.7 L114.0,243.2 L113.8,238.7 L114.0,234.4
		L114.4,230.1 L115.0,226.0 L115.8,221.9 L116.9,217.9 L118.1,214.0 L119.5,210.2 L121.2,206.5 L122.9,202.9
		L124.9,199.4 L127.0,196.0 L129.3,192.6 L131.8,189.3 L134.4,186.1 L137.1,183.0 L140.0,180.0 L143.1,177.1
		L146.2,174.2 L149.6,171.4 L153.0,168.7 L156.6,166.0 L160.4,163.5 L164.3,161.0 L168.3,158.6 L172.4,156.3
		L176.7,154.1 L181.2,151.9 L185.8,149.8 L190.5,147.8 L195.4,145.9 L200.4,144.1 L205.5,142.4 L210.9,140.8
		L216.3,139.2 L222.0,137.8 L227.7,136.5 L233.7,135.3 L239.8,134.1 L246.1,133.2 L252.6,132.3 L259.2,131.5
		L266.0,130.9 L273.0,130.5 L280.2,130.2 L287.5,130.0 L295.0,130.1 L302.8,130.3 L310.7,130.7 L318.8,131.3
		L327.0,132.1 L335.5,133.1 L344.1,134.4 L352.9,135.9 L361.8,137.7 L370.9,139.8 L380.1,142.3 L389.4,145.0
		L398.8,148.1 L408.3,151.5 L417.8,155.3 L427.3,159.5 L436.7,164.1 L446.1,169.1 L455.3,174.6 L464.3,180.6
		L473.1,186.9 L481.5,193.8 L489.5,201.1 L497.0,208.9 L503.9,217.1 L510.0,225.7 L515.4,234.7 L519.9,244.1
		L523.3,253.8 L525.7,263.7 L526.8,273.9 L526.7,284.1 L525.2,294.3 L522.3,304.5 L517.9,314.5 L512.1,324.2
		L504.9,333.6 L496.3,342.4 L486.3,350.7 L475.0,358.4 L462.6,365.3 L449.2,371.4 L435.0,376.6 L419.9,381.0
		L404.4,384.5 L388.4,387.1 L372.2,388.8 L355.9,389.6 L339.7,389.6 L323.7,388.8 L307.9,387.3 L292.6,385.1
		L277.8,382.3 L263.6,379.0 L250.0,375.2 L237.0,370.9 L224.8,366.3 L213.2,361.4 L202.4,356.3 L192.3,350.9
		L183.0,345.4 L174.3,339.8 L166.3,334.0 L159.0,328.2 L152.3,322.4 L146.2,316.6 L140.8,310.8 L135.8,305.1
		L131.4,299.4 L127.5,293.7 L124.1,288.1 L121.2,282.7 L118.6,277.3 L116.5,272.0 L114.7,266.8 L113.3,261.7
		L112.3,256.7 L111.5,251.8 L111.1,247.1 L110.9,242.4 L111.0,237.8 L111.4,233.4 L112.0,229.1 L112.8,224.8
		L113.9,220.7 L115.1,216.7 L116.6,212.8 L118.2,208.9 L120.0,205.2 L122.0,201.6 L124.2,198.1 L126.5,194.6
		L129.0,191.3 L131.7,188.0 L134.5,184.9 L137.4,181.8 L140.5,178.8 L143.7,175.9 L147.0,173.1 L150.5,170.4
		L154.1,167.7 L157.8,165.2 L161.7,162.7 L165.7,160.3 L169.8,158.0 L174.1,155.7 L178.5,153.6 L183.0,151.5
		L187.7,149.6 L192.5,147.7 L197.4,145.9 L202.5,144.2 L207.7,142.6 L213.0,141.1 L218.5,139.7 L224.1,138.4
		L229.9,137.2 L235.8,136.1 L241.9,135.1 L248.1,134.3 L254.5,133.5 L261.0,133.0 L267.7,132.5 L274.6,132.2
		L281.6,132.0 L288.8,132.0 L296.2,132.2 L303.7,132.5 L311.4,133.0 L319.2,133.7 L327.3,134.7 L335.4,135.8
		L343.7,137.2 L352.2,138.9 L360.8,140.8 L369.6,142.9 L378.4,145.4 L387.4,148.2 L396.4,151.3 L405.4,154.8
		L414.5,158.6 L423.6,162.8 L432.7,167.4 L441.6,172.4 L450.5,177.8 L459.1,183.7 L467.5,190.0 L475.5,196.8
		L483.2,204.0 L490.4,211.6 L497.0,219.7 L503.0,228.2 L508.3,237.0 L512.7,246.3 L516.1,255.8 L518.5,265.7
		L519.8,275.7 L519.8,285.8 L518.6,296.0 L516.0,306.2 L512.0,316.2 L506.5,326.0 L499.7,335.4 L491.4,344.5
		L481.9,352.9 L471.0,360.8 L458.9,367.9 L445.8,374.3 L431.8,379.8 L416.9,384.4 L401.5,388.1 L385.6,390.9
		L369.4,392.8 L353.0,393.8 L336.7,393.9 L320.5,393.2 L304.6,391.8 L289.1,389.6 L274.0,386.8 L259.6,383.4
		L245.7,379.4 L232.6,375.1 L220.1,370.3 L208.4,365.2 L197.4,359.8 L187.2,354.2 L177.7,348.5 L169.0,342.6
		L161.0,336.6 L153.6,330.5 L146.9,324.5 L140.9,318.4 L135.5,312.3 L130.6,306.3 L126.3,300.4 L122.5,294.5
		L119.2,288.7 L116.4,283.1 L114.0,277.5 L112.1,272.0 L110.5,266.6 L109.3,261.4 L108.4,256.2 L107.9,251.2
		L107.7,246.3 L107.7,241.6 L108.1,236.9 L108.7,232.4 L109.5,228.0 L110.5,223.7 L111.8,219.5 L113.3,215.4
		L115.0,211.5 L116.8,207.6 L118.9,203.9 L121.1,200.2 L123.5,196.7 L126.0,193.3 L128.7,189.9 L131.5,186.7
		L134.5,183.6 L137.6,180.5 L140.8,177.6 L144.2,174.7 L147.7,172.0 L151.4,169.3 L155.1,166.7 L159.0,164.2
		L163.0,161.8 L167.1,159.5 L171.4,157.3 L175.7,155.2 L180.2,153.1 L184.8,151.2 L189.6,149.3 L194.4,147.5
		L199.4,145.9 L204.5,144.3 L209.7,142.8 L215.1,141.4 L220.6,140.1 L226.2,138.9 L232.0,137.9 L237.9,136.9
		L243.9,136.1 L250.0,135.4 L256.4,134.8 L262.8,134.3 L269.4,134.0 L276.1,133.8 L283.0,133.8 L290.1,133.9
		L297.3,134.2 L304.6,134.6 L312.1,135.3 L319.7,136.1 L327.5,137.2 L335.4,138.4 L343.4,139.9 L351.6,141.7
		L359.9,143.7 L368.3,145.9 L376.8,148.5 L385.3,151.3 L394.0,154.5 L402.7,158.0 L411.4,161.8 L420.1,166.0
		L428.7,170.6 L437.2,175.6 L445.7,180.9 L453.9,186.7 L461.9,192.9 L469.6,199.6 L476.9,206.7 L483.8,214.2
		L490.2,222.1 L496.0,230.5 L501.0,239.2 L505.3,248.3 L508.7,257.7 L511.1,267.4 L512.4,277.3 L512.6,287.3
		L511.6,297.5 L509.2,307.6 L505.5,317.6 L500.4,327.5 L493.9,337.0 L486.1,346.1 L476.9,354.8 L466.4,362.8
		L454.6,370.1 L441.8,376.7 L428.0,382.5 L413.4,387.4 L398.1,391.4 L382.3,394.4 L366.1,396.5 L349.7,397.7
		L333.3,398.0 L317.0,397.4 L301.0,396.0 L285.3,393.9 L270.0,391.1 L255.3,387.6 L241.3,383.6 L227.9,379.1
		L215.3,374.2 L203.4,368.9 L192.2,363.3 L181.9,357.5 L172.3,351.5 L163.5,345.4 L155.4,339.1 L148.0,332.8
		L141.3,326.5 L135.3,320.2 L129.9,313.9 L125.1,307.6 L120.9,301.5 L117.3,295.4 L114.1,289.4 L111.5,283.5
		L109.3,277.7 L107.5,272.0 L106.1,266.5 L105.1,261.0 L104.5,255.8 L104.2,250.6 L104.1,245.6 L104.4,240.7
		L105.0,236.0 L105.8,231.3 L106.9,226.8 L108.2,222.5 L109.7,218.2 L111.4,214.1 L113.3,210.1 L115.4,206.2
		L117.6,202.5 L120.1,198.8 L122.7,195.3 L125.4,191.9 L128.3,188.6 L131.3,185.4 L134.5,182.2 L137.8,179.2
		L141.2,176.3 L144.7,173.5 L148.4,170.8 L152.2,168.2 L156.1,165.7 L160.1,163.3 L164.3,161.0 L168.5,158.7
		L172.9,156.6 L177.3,154.6 L181.9,152.6 L186.6,150.8 L191.4,149.0 L196.3,147.3 L201.4,145.8 L206.5,144.3
		L211.8,142.9 L217.2,141.7 L222.7,140.5 L228.3,139.5 L234.0,138.5 L239.9,137.7 L245.8,137.0 L252.0,136.4
		L258.2,135.9 L264.5,135.6 L271.0,135.4 L277.7,135.3 L284.4,135.4 L291.3,135.7 L298.3,136.1 L305.5,136.7
		L312.7,137.5 L320.1,138.4 L327.7,139.6 L335.3,141.0 L343.1,142.5 L351.0,144.4 L358.9,146.5 L367.0,148.8
		L375.2,151.4 L383.4,154.3 L391.7,157.5 L400.0,161.0 L408.3,164.9 L416.5,169.1 L424.8,173.6 L432.9,178.6
		L440.9,183.9 L448.8,189.6 L456.4,195.7 L463.7,202.3 L470.7,209.2 L477.3,216.6 L483.4,224.4 L488.9,232.6
		L493.7,241.2 L497.9,250.1 L501.2,259.4 L503.5,268.9 L504.9,278.7 L505.1,288.6 L504.2,298.7 L502.1,308.8
		L498.6,318.8 L493.8,328.6 L487.7,338.2 L480.2,347.4 L471.3,356.2 L461.2,364.4 L449.8,372.0 L437.3,378.8
		L423.8,384.8 L409.4,390.0 L394.3,394.2 L378.6,397.5 L362.5,399.9 L346.1,401.3 L329.7,401.8 L313.3,401.4
		L297.1,400.1 L281.2,398.0 L265.8,395.2 L250.9,391.8 L236.6,387.7 L223.0,383.1 L210.2,378.1 L198.1,372.6
		L186.8,366.9 L176.3,360.8 L166.6,354.6 L157.7,348.2 L149.5,341.7 L142.1,335.2 L135.5,328.6 L129.5,322.0
		L124.2,315.4 L119.5,308.9 L115.4,302.5 L111.8,296.2 L108.8,290.0 L106.3,283.8 L104.3,277.8 L102.7,272.0
		L101.6,266.3 L100.8,260.7 L100.3,255.3 L100.3,250.0 L100.5,244.8 L101.0,239.8 L101.8,235.0 L102.9,230.2
		L104.2,225.7 L105.7,221.2 L107.4,216.9 L109.4,212.8 L111.5,208.7 L113.9,204.8 L116.3,201.1 L119.0,197.4
		L121.8,193.9 L124.8,190.5 L127.9,187.2 L131.1,184.0 L134.4,180.9 L137.9,177.9 L141.5,175.1 L145.2,172.3
		L149.1,169.7 L153.0,167.1 L157.1,164.7 L161.2,162.3 L165.5,160.1 L169.9,157.9 L174.3,155.9 L178.9,153.9
		L183.6,152.1 L188.4,150.3 L193.2,148.7 L198.2,147.1 L203.3,145.7 L208.5,144.3 L213.8,143.0 L219.2,141.9
		L224.7,140.9 L230.3,139.9 L236.0,139.1 L241.8,138.4 L247.8,137.8 L253.8,137.4 L260.0,137.0 L266.2,136.8
		L272.6,136.8 L279.1,136.8 L285.8,137.1 L292.5,137.4 L299.3,138.0 L306.3,138.7 L313.4,139.6 L320.6,140.6
		L327.9,141.9 L335.3,143.4 L342.8,145.1 L350.4,147.0 L358.0,149.1 L365.8,151.5 L373.6,154.2 L381.5,157.1
		L389.4,160.4 L397.3,163.9 L405.2,167.8 L413.1,172.0 L420.9,176.5 L428.7,181.4 L436.3,186.7 L443.7,192.4
		L451.0,198.4 L457.9,204.8 L464.5,211.7 L470.8,218.9 L476.6,226.6 L481.8,234.6 L486.4,243.1 L490.4,251.8
		L493.5,260.9 L495.8,270.3 L497.2,279.9 L497.5,289.8 L496.6,299.7 L494.7,309.7 L491.4,319.6 L486.9,329.5
		L481.0,339.1 L473.8,348.4 L465.3,357.3 L455.6,365.6 L444.5,373.4 L432.4,380.5 L419.2,386.7 L405.0,392.2
		L390.1,396.7 L374.5,400.3 L358.5,402.9 L342.2,404.5 L325.7,405.2 L309.2,405.0 L292.9,403.9 L276.9,401.9
		L261.3,399.2 L246.2,395.7 L231.7,391.6 L218.0,387.0 L204.9,381.8 L192.6,376.3 L181.2,370.3 L170.5,364.1
		L160.7,357.7 L151.7,351.0 L143.5,344.3 L136.1,337.5 L129.4,330.7 L123.4,323.8 L118.2,317.0 L113.6,310.2
		L109.6,303.6 L106.2,297.0 L103.3,290.5 L101.0,284.2 L99.2,278.0 L97.8,272.0 L96.8,266.1 L96.2,260.3
		L96.0,254.7 L96.2,249.3 L96.7,244.0 L97.4,238.9 L98.5,233.9 L99.8,229.1 L101.3,224.5 L103.1,220.0
		L105.1,215.6 L107.3,211.4 L109.7,207.3 L112.3,203.4 L115.0,199.6 L117.9,195.9 L120.9,192.4 L124.1,189.0
		L127.4,185.7 L130.8,182.5 L134.3,179.5 L138.0,176.6 L141.8,173.8 L145.7,171.1 L149.7,168.5 L153.8,166.0
		L158.0,163.6 L162.3,161.3 L166.7,159.2 L171.2,157.1 L175.8,155.1 L180.4,153.3 L185.2,151.5 L190.1,149.9
		L195.0,148.3 L200.1,146.9 L205.2,145.5 L210.4,144.3 L215.7,143.1 L221.2,142.1 L226.7,141.2 L232.3,140.4
		L238.0,139.7 L243.8,139.1 L249.7,138.6 L255.6,138.3 L261.7,138.1 L267.9,138.0 L274.2,138.1 L280.6,138.3
		L287.1,138.6 L293.7,139.1 L300.3,139.8 L307.1,140.6 L314.0,141.6 L321.0,142.8 L328.1,144.1 L335.2,145.7
		L342.4,147.5 L349.8,149.5 L357.1,151.7 L364.6,154.2 L372.1,156.9 L379.6,159.9 L387.2,163.2 L394.7,166.7
		L402.2,170.6 L409.8,174.8 L417.2,179.3 L424.5,184.2 L431.7,189.4 L438.8,195.0 L445.6,200.9 L452.2,207.3
		L458.5,214.0 L464.4,221.1 L469.8,228.6 L474.8,236.5 L479.2,244.8 L482.9,253.4 L485.9,262.3 L488.0,271.5
		L489.3,281.0 L489.6,290.7 L488.9,300.5 L487.0,310.4 L483.9,320.2 L479.6,330.0 L474.0,339.7 L467.1,349.0
		L458.9,358.0 L449.5,366.5 L438.8,374.4 L426.9,381.7 L414.0,388.2 L400.2,393.9 L385.5,398.7 L370.1,402.5
		L354.2,405.4 L337.9,407.4 L321.4,408.3 L304.9,408.3 L288.5,407.3 L272.3,405.5 L256.6,402.9 L241.3,399.5
		L226.7,395.4 L212.7,390.7 L199.4,385.5 L187.0,379.8 L175.3,373.7 L164.6,367.3 L154.6,360.7 L145.5,353.8
		L137.2,346.9 L129.8,339.8 L123.1,332.7 L117.2,325.6 L112.0,318.6 L107.4,311.6 L103.6,304.6 L100.3,297.8
		L97.6,291.1 L95.5,284.6 L93.8,278.2 L92.6,271.9 L91.9,265.8 L91.5,259.9 L91.6,254.2 L92.0,248.6
		L92.7,243.2 L93.7,237.9 L95.0,232.9 L96.6,228.0 L98.4,223.2 L100.4,218.6 L102.7,214.2 L105.1,210.0
		L107.8,205.9 L110.6,201.9 L113.5,198.1 L116.7,194.4 L119.9,190.9 L123.3,187.5 L126.8,184.2 L130.5,181.1
		L134.2,178.1 L138.1,175.2 L142.0,172.4 L146.1,169.8 L150.3,167.2 L154.5,164.8 L158.9,162.5 L163.3,160.3
		L167.9,158.2 L172.5,156.2 L177.2,154.4 L182.0,152.6 L186.8,150.9 L191.8,149.4 L196.8,147.9 L201.9,146.6
		L207.1,145.3 L212.3,144.2 L217.7,143.2 L223.1,142.3 L228.6,141.5 L234.2,140.8 L239.9,140.2 L245.7,139.7
		L251.5,139.4 L257.4,139.2 L263.5,139.1 L269.6,139.1 L275.7,139.3 L282.0,139.6 L288.4,140.1 L294.8,140.7
		L301.3,141.5 L307.9,142.4 L314.6,143.5 L321.4,144.8 L328.2,146.3 L335.2,147.9 L342.1,149.8 L349.2,151.9
		L356.3,154.2 L363.4,156.7 L370.6,159.5 L377.8,162.5 L385.0,165.8 L392.2,169.4 L399.4,173.3 L406.5,177.5
		L413.5,182.0 L420.5,186.8 L427.3,192.0 L434.0,197.5 L440.4,203.3 L446.6,209.6 L452.5,216.2 L458.0,223.2
		L463.2,230.6 L467.8,238.3 L471.9,246.4 L475.4,254.8 L478.2,263.5 L480.3,272.6 L481.4,281.9 L481.7,291.4
		L481.0,301.1 L479.1,310.8 L476.2,320.6 L472.1,330.3 L466.7,339.9 L460.1,349.3 L452.2,358.3 L443.0,366.9
		L432.7,375.0 L421.1,382.5 L408.5,389.2 L394.9,395.1 L380.5,400.2 L365.3,404.4 L349.5,407.5 L333.3,409.8
		L316.9,411.0 L300.3,411.2 L283.8,410.5 L267.6,408.8 L251.7,406.3 L236.2,403.0 L221.4,399.0 L207.2,394.3
		L193.8,389.0 L181.1,383.2 L169.3,377.0 L158.4,370.5 L148.3,363.7 L139.1,356.6 L130.8,349.4 L123.3,342.1
		L116.6,334.8 L110.7,327.4 L105.5,320.1 L101.1,312.8 L97.3,305.7 L94.2,298.6 L91.7,291.7 L89.7,284.9
		L88.2,278.3 L87.3,271.8 L86.7,265.6 L86.7,259.5 L86.9,253.5 L87.6,247.8 L88.6,242.3 L89.9,236.9
		L91.4,231.7 L93.3,226.7 L95.3,221.9 L97.7,217.3 L100.2,212.8 L102.9,208.5 L105.8,204.3 L108.8,200.4
		L112.0,196.5 L115.4,192.8 L118.9,189.3 L122.5,185.9 L126.2,182.7 L130.1,179.6 L134.0,176.6 L138.1,173.7
		L142.3,171.0 L146.5,168.4 L150.8,166.0 L155.3,163.6 L159.8,161.4 L164.4,159.2 L169.0,157.2 L173.8,155.3
		L178.6,153.6 L183.4,151.9 L188.4,150.3 L193.4,148.9 L198.5,147.5 L203.7,146.3 L208.9,145.1 L214.2,144.1
		L219.6,143.2 L225.1,142.4 L230.6,141.7 L236.2,141.1 L241.8,140.7 L247.5,140.3 L253.3,140.1 L259.2,140.0
		L265.2,140.1 L271.2,140.2 L277.3,140.5 L283.4,141.0 L289.6,141.5 L295.9,142.3 L302.3,143.1 L308.7,144.2
		L315.2,145.4 L321.8,146.8 L328.4,148.3 L335.1,150.1 L341.8,152.0 L348.6,154.2 L355.4,156.5 L362.3,159.1
		L369.1,162.0 L376.0,165.0 L382.9,168.4 L389.7,172.0 L396.6,175.8 L403.3,180.0 L410.0,184.5 L416.6,189.3
		L423.0,194.4 L429.3,199.8 L435.3,205.6 L441.1,211.8 L446.7,218.3 L451.9,225.1 L456.6,232.3 L461.0,239.9
		L464.8,247.8 L468.0,256.1 L470.6,264.6 L472.5,273.5 L473.6,282.6 L473.7,292.0 L473.0,301.5 L471.2,311.1
		L468.3,320.8 L464.3,330.4 L459.1,339.9 L452.7,349.3 L445.1,358.3 L436.3,367.0 L426.2,375.2 L415.0,382.8
		L402.6,389.8 L389.3,395.9 L375.1,401.3 L360.1,405.7 L344.5,409.2 L328.4,411.7 L312.0,413.2 L295.5,413.7
		L279.0,413.2 L262.6,411.8 L246.6,409.4 L231.0,406.2 L215.9,402.3 L201.5,397.6 L187.9,392.3 L175.1,386.5
		L163.1,380.2 L152.0,373.5 L141.8,366.5 L132.5,359.3 L124.1,351.9 L116.5,344.4 L109.8,336.8 L104.0,329.2
		L98.9,321.6 L94.5,314.1 L90.9,306.7 L87.9,299.4 L85.5,292.2 L83.7,285.2 L82.5,278.4 L81.7,271.7
		L81.4,265.3 L81.6,259.0 L82.1,252.9 L83.0,247.0 L84.3,241.3 L85.8,235.9 L87.7,230.6 L89.8,225.5
		L92.2,220.6 L94.7,215.8  '/></g>
	</g>
	<g id="gnuplot_plot_2" ><title>star</title>
<g fill="none" color="black" stroke="currentColor" stroke-width="1.00" stroke-linecap="butt" stroke-linejoin="miter">
	<g transform="translate(113.4,76.6)" stroke="none" fill="black" font-family="Arial" font-size="12.00"  text-anchor="end">
		<text><tspan font-family="Arial" >star</tspan></text>
	</g>
</g>
<g fill="none" color="black" stroke="currentColor" stroke-width="1.00" stroke-linecap="butt" stroke-linejoin="miter">
	<use xlink:href='#gpPt2' transform='translate(239.6,211.9) scale(4.50)' color='rgb(  0, 158, 115)'/>
	<use xlink:href='#gpPt2' transform='translate(142.8,72.1) scale(4.50)' color='rgb(  0, 158, 115)'/>
</g>
	</g>
<g fill="none" color="white" stroke="rgb(  0, 158, 115)" stroke-width="2.00" stroke-linecap="butt" stroke-linejoin="miter">
</g>
<g fill="none" color="black" stroke="currentColor" stroke-width="2.00" stroke-linecap="butt" stroke-linejoin="miter">
</g>
<g fill="none" color="black" stroke="black" stroke-width="1.00" stroke-linecap="butt" stroke-linejoin="miter">
</g>
<g fill="none" color="black" stroke="currentColor" stroke-width="1.00" stroke-linecap="butt" stroke-linejoin="miter">
	<path stroke='black'  d='M71.9,54.1 L71.9,422.4 L575.0,422.4 L575.0,54.1 L71.9,54.1 Z  '/></g>
<g fill="none" color="black" stroke="currentColor" stroke-width="1.00" stroke-linecap="butt" stroke-linejoin="miter">
</g>
</g>
</svg>

