0.0	1.0	-0.07443927091099	0.0	0.0	1.0	-0.0	0.0
0.06314759102693052	0.995096086323737	-0.08409536564686948	0.06289332650418865	0.2564565431501872	0.9672948630390295	-0.25365458390950735	0.25365458390950735
0.12629518205386103	0.9889726544048769	-0.11306364985450795	0.12527812396289353	0.5129130863003744	0.8713187041233894	-0.49071755200393785	0.49071755200393785
0.18944277308079155	0.9804101860008222	-0.16134412353390543	0.1871543923761147	0.7693696294505615	0.7183493500977276	-0.6956825506034864	0.6956825506034864
0.25259036410772207	0.9681891628689759	-0.22893678668506184	0.24852213174385213	1.0258261726007487	0.5183925683105252	-0.8551427630053461	0.8551427630053461
0.3157379551346526	0.951317543609734	-0.3043299275228585	0.3082544220181602	1.2822827157509358	0.28452758663103267	-0.9586678530366606	0.9586678530366606
0.3788855461615831	0.9298970878252086	-0.3729598161565755	0.36492557086995087	1.538739258901123	0.03205157757165533	-0.9994862162006879	0.9994862162006879
0.4420331371885136	0.9043579073863595	-0.4347774897289037	0.41853078516102393	1.7951958020513104	-0.22252093395631434	-0.9749279121818236	0.9749279121818236
0.5051807282154441	0.8751301772638708	-0.4897829482398432	0.4690700648913795	2.0516523452014974	-0.4625382902408351	-0.8865993063730001	0.8865993063730001
0.5683283192423747	0.8426025075906705	-0.5402263764607619	0.5224764628466976	2.3081088883516845	-0.6723008902613166	-0.7402779970753157	0.7402779970753157
0.6314759102693052	0.8069226836897874	-0.5896576873057118	0.5744367115128535	2.5645654315018716	-0.8380881048918404	-0.545534901210549	0.545534901210549
0.6946235012962356	0.7681519646933259	-0.638120691835682	0.6241745898489175	2.821021974652059	-0.9490557470106686	-0.3151082180236209	0.3151082180236209
0.7577710923231662	0.7263514968124533	-0.6856153900506727	0.6716900978548898	3.077478517802246	-0.9979453927503363	-0.06407021998071323	0.06407021998071323
0.8209186833500968	0.6815969641514331	-0.7312957202678635	0.7157287434131154	3.333935060952433	-0.9815591569910654	0.19115862870137187	-0.19115862870137187
0.8840662743770272	0.6340660361789936	-0.7735113334172037	0.7552543584464794	3.5903916041026207	-0.9009688679024191	0.433883739117558	-0.433883739117558
0.9472138654039577	0.5839800405654506	-0.8122193976260004	0.7903461071060082	3.8468481472528078	-0.7614459583691346	0.6482283953077882	-0.6482283953077882
1.0103614564308883	0.5315604705768087	-0.8474199128942537	0.8210039893917019	4.103304690402995	-0.57211666012217	0.8201722545969556	-0.8201722545969556
1.0735090474578188	0.4770290305609128	-0.8790995988666072	0.8516551736187099	4.359761233553182	-0.34536505442130816	0.9384684220497602	-0.9384684220497602
1.1366566384847494	0.4206092311190862	-0.9072265497075872	0.8804306741578105	4.616217776703369	-0.09602302590768244	0.9953791129491981	-0.9953791129491981
1.1998042295116798	0.362525499927053	-0.9317993685061842	0.9060512588197949	4.872674319853556	0.1595998950333784	0.9871817834144503	-0.9871817834144503
1.2629518205386103	0.30300227186148104	-0.9528180552623984	0.928516927604663	5.129130863003743	0.40478334312239295	0.9144126230158128	-0.9144126230158128
1.326099411565541	0.24226546042457964	-0.9701813728441061	0.9460581350011125	5.385587406153931	0.6234898018587334	0.7818314824680299	-0.7818314824680299
1.3892470025924712	0.18055657537515346	-0.9835897258975055	0.9582111500589395	5.642043949304118	0.8014136218679565	0.5981105304912162	-0.5981105304912162
1.4523945936194018	0.1181264805166086	-0.9930234099634896	0.9654941375216759	5.898500492454305	0.9269167573460216	0.3752670048793746	-0.3752670048793746
1.5155421846463324	0.05522616662063009	-0.9984824250420586	0.9679070973893213	6.154957035604492	0.991790013823246	0.12787716168450664	-0.12787716168450664
1.578689775673263	-0.00789338071080583	-0.999967159341593	0.9682372673025269	6.411413578754679	0.9917900138232462	-0.12787716168450525	0.12787716168450525
1.6418373667001935	-0.07098124404555943	-0.9974790335997361	0.9667883479128632	6.667870121904866	0.9269167573460221	-0.3752670048793733	0.3752670048793733
1.7049849577271239	-0.13378655409549634	-0.9910181787004789	0.9622732651755526	6.9243266650550535	0.8014136218679573	-0.5981105304912151	0.5981105304912151
1.7681325487540545	-0.19605844258452465	-0.980584594643821	0.9546920190905951	7.180783208205241	0.6234898018587337	-0.7818314824680296	0.7818314824680296
1.831280139780985	-0.2575464698445966	-0.9662139152868616	0.9417789077182808	7.4372397513554285	0.4047833431223942	-0.9144126230158123	0.9144126230158123
1.8944277308079154	-0.31800739548341567	-0.9480687201026166	0.9231606396692768	7.6936962945056155	0.15959989503337976	-0.9871817834144501	0.9871817834144501
1.957575321834846	-0.37720395283330943	-0.9261690531357039	0.9002802049781127	7.950152837655803	-0.09602302590768108	-0.9953791129491982	0.9953791129491982
2.0207229128617765	-0.4348990560456236	-0.9005149143861233	0.8731376036447884	8.20660938080599	-0.3453650544213069	-0.9384684220497607	0.9384684220497607
2.083870503888707	-0.4908562839205725	-0.871168192760239	0.8431285243504394	8.463065923956178	-0.5721166601221696	-0.820172254596956	0.820172254596956
2.1470180949156377	-0.5448537938899806	-0.8384854673809612	0.8119211978298668	8.719522467106364	-0.7614459583691338	-0.6482283953077892	0.6482283953077892
2.210165685942568	-0.5966839390519189	-0.8025237750643954	0.7787349169866019	8.975979010256552	-0.9009688679024189	-0.43388373911755845	0.43388373911755845
2.273313276969499	-0.6461396605432415	-0.7632831158105412	0.7435696818206443	9.232435553406738	-0.9815591569910651	-0.19115862870137365	0.19115862870137365
2.336460867996429	-0.6930145537627165	-0.7208327188503802	0.7040073459823921	9.488892096556926	-0.9979453927503363	0.0640702199807123	-0.0640702199807123
2.3996084590233595	-0.737121588753465	-0.6756859389566277	0.6589275995290246	9.745348639707112	-0.9490557470106692	0.3151082180236191	-0.3151082180236191
2.4627560500502903	-0.7782958706008333	-0.6279470490825588	0.6110811288903419	10.0018051828573	-0.8380881048918412	0.5455349012105479	-0.5455349012105479
2.5259036410772207	-0.8163737138038871	-0.5776160492281743	0.560467934066345	10.258261726007486	-0.6723008902613182	0.7402779970753143	-0.7402779970753143
2.589051232104151	-0.8511919588585616	-0.5247573845236151	0.5075804916150057	10.514718269157674	-0.4625382902408363	0.8865993063729996	-0.8865993063729996
2.652198823131082	-0.8826094551538319	-0.4700031885030373	0.4545035801011452	10.771174812307862	-0.2225209339563148	0.9749279121818235	-0.9749279121818235
2.715346414158012	-0.9105145796057712	-0.41351412769587936	0.40125357285259217	11.027631355458048	0.03205157757165373	0.9994862162006879	-0.9994862162006879
2.7784940051849425	-0.9347977796823497	-0.3552902021021411	0.3478304698693462	11.284087898608236	0.2845275866310318	0.9586678530366608	-0.9586678530366608
2.8416415962118733	-0.9553498584601082	-0.29538315009680227	0.29214395960060324	11.540544441758422	0.5183925683105236	0.8551427630053471	-0.8551427630053471
2.9047891872388036	-0.9720840391115142	-0.23449164184512827	0.2315781278260405	11.79700098490861	0.7183493500977269	0.695682550603487	-0.695682550603487
2.9679367782657344	-0.9849489337654818	-0.1728357675438128	0.1702437248804111	12.053457528058797	0.8713187041233884	0.4907175520039396	-0.4907175520039396
3.031084369292665	-0.9938962745473131	-0.11041552719285669	0.1081407507637159	12.309914071208985	0.9672948630390291	0.25365458390950857	-0.25365458390950857
3.094231960319595	-0.9988779941607778	-0.047266837912045175	0.045371693280227235	12.566370614359172	1.0	4.898587196589413e-16	-4.898587196589413e-16
3.157379551346526	-0.999866981514184	0.015901096578353577	-0.016202287944958996
3.2205271423734563	-0.9968751548719268	0.07881284085086863	-0.07588961720034029
3.283674733400387	-0.9899186920291095	0.14146839490550098	-0.13369029448591752
3.3468223244273174	-0.9790138605768378	0.20384685531281815	-0.19097076700966092
3.4099699154542478	-0.9641950111350754	0.26528328398260875	-0.2520962618282937
3.4731175064811786	-0.9455363813481887	0.32545973975322207	-0.3120037140848081
3.536265097508109	-0.9231175354695208	0.38437622262465715	-0.37069312377920316
3.5994126885350393	-0.89701806602375	0.44202333084358275	-0.4281191349840694
3.66256027956197	-0.8673319273746877	0.4978275574567495	-0.48265374279316015
3.7257078705889004	-0.8341907595781969	0.5514504393442062	-0.533518163819038
3.7888554616158308	-0.7977323092989055	0.6028919765059533	-0.5807123980617034
3.8520030526427615	-0.7580943276596555	0.65214957439534	-0.6247372828783261
3.915150643669692	-0.7154249186621703	0.6987755115559334	-0.6712609169032826
3.9782982346966227	-0.6699046535315158	0.7424414156772381	-0.7151027139731841
4.041445825723553	-0.6217204512234842	0.7831472867592536	-0.7562626740880299
4.104593416750483	-0.5710592307462053	0.8208930029627353	-0.7947186558317815
4.167741007777414	-0.5181144532919706	0.8553743316943913	-0.8283909021361249
4.230888598804345	-0.46310419541613873	0.8863105553351004	-0.8573446548769983
4.294036189831275	-0.4062523219651418	0.9137016738848618	-0.881579914054401
4.357183780858206	-0.34778269778540977	0.9375476873436758	-0.9010966796683333
4.420331371885136	-0.28792246802628646	0.9576861244177498	-0.9212186115606441
4.483478962912066	-0.22691360998915205	0.973926564926174	-0.9382909469485134
4.546626553938998	-0.1650022910921427	0.9862687146701369	-0.9521171962473994
4.609774144965928	-0.10243467900615845	0.9947125736496383	-0.9626973594573015
4.672921735992858	-0.03945768970157774	0.999218552064049	-0.9671195537803595
4.736069327019789	0.023677688169100094	0.9997285535168876	-0.9665264061576054
4.799216918046719	0.08671908710195132	0.9962420667762245	-0.9611714811741929
4.862364509073649	0.14941413849498875	0.9887590918420601	-0.9510547788301221
4.925512100100581	0.21151148004323297	0.9773367637985523	-0.9395498642561161
4.988659691127511	0.2727663681868462	0.9620789862461049	-0.9257746775186834
5.051807282154441	0.3329367334169404	0.9429879344645421	-0.9092339174368497
5.114954873181372	0.39178051370020145	0.9200636084538641	-0.889927584010615
5.178102464208302	0.4490576789645974	0.8934304861502034	-0.8642511605009343
5.241250055235233	0.5045444562725624	0.8633676084671776	-0.833857288739122
5.304397646262164	0.5580248742150878	0.82988540603517	-0.7996745184327588
5.367545237289094	0.6092830106713373	0.7929838788541799	-0.7617028495818443
5.430692828316024	0.6581053890645443	0.7528256821407933	-0.7216871602859286
5.493840419342955	0.7043025578428891	0.7098597442927903	-0.6806590383863624
5.556988010369885	0.7476987018082882	0.6641120901448246	-0.6382669517601721
5.620135601396816	0.7881181622774792	0.6155827196968954	-0.5945109004073572
5.683283192423747	0.8253876829856841	0.5644463998679201	-0.5455246420647271
5.746430783450677	0.8593633611192643	0.5112986011462772	-0.4925532504954977
5.809578374477607	0.8899209311136351	0.45618864739873066	-0.43753161919754396
5.872725965504538	0.916936487605689	0.3991165386252806	-0.3804597481708658
5.935873556531469	0.9402881933570764	0.34024828674985225	-0.32203892326835054
5.999021147558399	0.9598861794250225	0.28028682692238727	-0.26415930113037644
6.06216873858533	0.9756657200708021	0.21931111844082848	-0.2068776971302551
6.12531632961226	0.9875627679352067	0.15732116130517587	-0.15019411126798657
6.18846392063919	0.9955148703692612	0.09445973604232878	-0.09056291439034558
6.2516115116661215	0.9994914735560031	0.03148657868077256	-0.02794070368353946
6.314759102693052	0.999491473556003	-0.03148657868077838	0.03467477367545918
6.377906693719982	0.995514870369261	-0.09445973604232494	0.09728351768665114
6.4410542847469126	0.987562767935207	-0.15732116130515741	0.15961098322017778
6.504201875773843	0.9756657200708039	-0.21931111844080906	0.21970476345752912
6.567349466800774	0.9598861794250249	-0.28028682692238516	0.2771831094408291
6.6304970578277045	0.9402881933570779	-0.340248286749884	0.3320460211700761
6.693644648854635	0.9169364876056875	-0.39911653862535645	0.38702041682857863
6.756792239881565	0.8899209311136285	-0.45618864739880416	0.44387048411810603
6.8199398309084955	0.8593633611192547	-0.5112986011462874	0.49886791864473423
6.883087421935426	0.8253876829856774	-0.5644463998678062	0.5520127204084633
6.946235012962357	0.7881181622774847	-0.6155827196966143	0.6030262645626862
7.0093826039892875	0.7476987018083132	-0.6641120901445402	0.6501026519235074
7.072530195016218	0.7043025578429262	-0.7098597442927297	0.6930099631026642
7.135677786043148	0.658105389064572	-0.7528256821411831	0.7317481981001568
7.1988253770700785	0.6092830106713206	-0.7929838788552023	0.7679920238059872
7.26197296809701	0.5580248742149994	-0.8298854060362545	0.8049970225626061
7.32512055912394	0.5045444562724258	-0.8633676084674783	0.8389896282602554
7.3882681501508705	0.44905767896448967	-0.8934304861488742	0.8699698408989353
7.451415741177801	0.39178051370025085	-0.9200636084501606	0.8975371562313913
7.514563332204731	0.33293673341725355	-0.9429879344604173	0.9195778847768313
7.5777109232316615	0.27276636818735006	-0.9620789862447133	0.9367595187147288
7.640858514258593	0.21151148004365455	-0.9773367638030491	0.9490820580450838
7.704006105285523	0.14941413849485902	-0.9887590918553989	0.9572618429689161
7.7671536963124534	0.08671908710084483	-0.9962420667918594	0.9652260102783586
7.830301287339384	0.02367768816724359	-0.9997285535230442	0.9700026422673934
7.893448878366314	-0.039457689703213956	-0.9992185520489529	0.9715917389360204
7.956596469393245	-0.10243467900586202	-0.9947125736018055	0.9696602348818926
8.019744060420175	-0.1650022910882382	-0.9862687146110464	0.9608826695466501
8.082891651447106	-0.2269136099823168	-0.9739265648997675	0.9475971996101622
8.146039242474037	-0.2879224680199727	-0.9576861244679693	0.9298038250724286
8.209186833500967	-0.3477826977858419	-0.9375476875142913	0.9076089398210726
8.272334424527898	-0.40625232197885536	-0.9137016741075322	0.8845382525126767
8.335482015554827	-0.4631041954412412	-0.8863105554458324	0.8591345807233961
8.398629606581759	-0.5181144533162164	-0.8553743315291901	0.8313979244532292
8.46177719760869	-0.5710592307469924	-0.8208930023576062	0.8013282837021771
8.52492478863562	-0.6217204511755304	-0.7831472859225415	0.7637616527359415
8.58807237966255	-0.6699046534395131	-0.7424414152208162	0.7228904561762842
8.65121997068948	-0.7154249185694553	-0.698775512091838	0.678813370283637
8.714367561716411	-0.7580943276482172	-0.6521495765356042	0.6315303950579974
8.777515152743343	-0.7977323094657701	-0.6028919796412944	0.5830887521312381
8.840662743770272	-0.8341907599146741	-0.5514504412001305	0.5340568545269616
8.903810334797203	-0.867331927727867	-0.49782755574911036	0.48435628696343724
8.966957925824133	-0.897018066096481	-0.44202332328823685	0.4339870494406678
9.030105516851064	-0.9231175348920537	-0.3843762109079976	0.3774973675527921
9.093253107877995	-0.9455363801202661	-0.3254597322895017	0.31885516554680116
9.156400698904925	-0.9641950097944113	-0.2652832892963756	0.2589248247140916
9.219548289931856	-0.9790138601994528	-0.2038468819286161	0.1977063450546602
9.282695880958785	-0.9899186940152694	-0.14146843857091201	0.1361572044482405
9.345843471985717	-0.9968751593432212	-0.07881287059188985	0.07595868624512922
9.408991063012646	-0.9998669865868316	-0.015901080580947087	0.017137243987747047
9.472138654039577	-0.998877995942017	0.04726693146191983	-0.04030712232390932
9.535286245066509	-0.9938962677637395	0.11041568947884288	-0.10141225479546574
9.598433836093438	-0.9849489175203997	0.1728358851325518	-0.1635018722127516
9.66158142712037	-0.9720840199762545	0.23449159600501046	-0.2248396999531016
9.724729018147299	-0.9553498505036175	0.2953828220962154	-0.2854257380165123
9.78787660917423	-0.9347978026649514	0.35528960062474685	-0.34466419713730956
9.851024200201161	-0.9105146384916867	0.413513665901549	-0.40074843643298835
9.91417179122809	-0.8826095271316725	0.47000330950417357	-0.4535549209628019
9.977319382255022	-0.8511919931354562	0.5247585314326241	-0.5030836507267532
10.040466973281951	-0.8163736366700765	0.5776182721655038	-0.553361028953329
10.103614564308883	-0.7782956576542958	0.6279488519636427	-0.6036272376909771
10.166762155335814	-0.7371213187338949	0.6756856680634583	-0.6515045515373357
10.229909746362743	-0.6930144098381177	0.7208287204649494	-0.6969929704924032
10.293057337389675	-0.646139916530868	0.7632749242142574	-0.7393425369726472
10.356204928416604	-0.5966847072299969	0.8025167732765299	-0.7770206686785837
10.419352519443535	-0.5448548042590964	0.8384858271611402	-0.8101545975105993
10.482500110470466	-0.4908568767495619	0.8711820858680868	-0.8387443234686932
10.545647701497396	-0.4348982179883838	0.9005450094312961	-0.865502221388979
10.608795292524327	-0.37720118881385467	0.9261961179587004	-0.8915412249099588
10.671942883551257	-0.3180036241023296	0.9480697213829448	-0.9143783812555404
10.735090474578188	-0.2575440642011615	0.9661658197040303	-0.9340136904257251
10.79823806560512	-0.19606113997810373	0.9804743786078027	-0.9493729908527803
10.861385656632049	-0.13379647282655882	0.9909140086572344	-0.9589206310185857
10.92453324765898	-0.07099528819269588	0.9974668710716077	-0.9636177872819007
10.98768083868591	-0.007903026089553811	1.000132965850922	-0.9634644596427252
11.05082842971284	0.055234660236816516	0.9988847162822907	-0.9599177517979736
11.11397602073977	0.11816197379848822	0.9934227788496026	-0.9553078437539927
11.177123611766701	0.18060875450634262	0.9836653596606237	-0.9477165126875601
11.240271202793632	0.24230375303516813	0.9696124587153543	-0.9371437585986759
11.303418793820562	0.3029763053726311	0.9513549118811608	-0.9223623504798367
11.366566384847493	0.3623988688501662	0.9302738280569667	-0.9010756898930949
11.429713975874423	0.42041579820515285	0.9068359017435497	-0.8756712567341008
11.492861566901354	0.4768782645119699	0.8810411329409086	-0.8461490510028531
11.556009157928285	0.5316365702364845	0.8527210203010857	-0.8130578678767809
11.619156748955215	0.5844303964293538	0.8180269462308039	-0.7789934662923926
11.682304339982146	0.6347815461634494	0.7753569777762154	-0.7431447133442646
11.745451931009075	0.6821863609221144	0.7247111149373224	-0.7055116090323985
11.808599522036006	0.7261427267104003	0.6664888533625165	-0.6650933089432975
11.871747113062938	0.7665557324048261	0.6160831056275771	-0.6179984109096693
11.934894704089867	0.8042816909760724	0.5813851437995488	-0.5683688715058766
11.998042295116798	0.8403125112645293	0.5623949678784296	-0.5162046907319167
12.061189886143728	0.8756384643831431	0.5584771724333925	-0.4616031249433265
12.12433747717066	0.9099949052118228	0.518146267416522	-0.40663204435821204
12.18748506819759	0.9396244315816236	0.4087671238944656	-0.3517422501092374
12.25063265922452	0.9601668135662893	0.2303397418672291	-0.29693374219640406
12.313780250251451	0.9672881336973609	-0.0034250653545940786	-0.24181414260766002
12.37692784127838	0.9663368037644234	-0.011747703939887492	-0.18044640323992364
12.440075432305312	0.967693527361	0.06967522214583466	-0.11857013482670178
12.503223023332243	0.977025520701417	0.24084371290257384	-0.05618533736799616
12.566370614359172	1.0	0.5017577683303215	0.006707989136191417
