\relax 
\providecommand\hyper@newdestlabel[2]{}
\providecommand*{\memsetcounter}[2]{}
\providecommand\HyperFirstAtBeginDocument{\AtBeginDocument}
\HyperFirstAtBeginDocument{\ifx\hyper@anchor\@undefined
\global\let\oldcontentsline\contentsline
\gdef\contentsline#1#2#3#4{\oldcontentsline{#1}{#2}{#3}}
\global\let\oldnewlabel\newlabel
\gdef\newlabel#1#2{\newlabelxx{#1}#2}
\gdef\newlabelxx#1#2#3#4#5#6{\oldnewlabel{#1}{{#2}{#3}}}
\AtEndDocument{\ifx\hyper@anchor\@undefined
\let\contentsline\oldcontentsline
\let\newlabel\oldnewlabel
\fi}
\fi}
\global\let\hyper@last\relax 
\gdef\HyperFirstAtBeginDocument#1{#1}
\providecommand*\HyPL@Entry[1]{}
\HyPL@Entry{0<</S/D>>}
\@writefile{toc}{\contentsline {chapter}{\chapternumberline {1}Introduction}{1}{chapter.1}}
\newlabel{eq:erf_definition}{{\M@TitleReference {1}{Introduction}}{1}{Introduction}{equation.1.0.1}{}}
\newlabel{eq:erf_definition@cref}{{[equation][1][]1}{1}}
\newlabel{eq:erf_symmetric}{{\M@TitleReference {2}{Introduction}}{1}{Introduction}{equation.1.0.2}{}}
\newlabel{eq:erf_symmetric@cref}{{[equation][2][]2}{1}}
\@writefile{toc}{\contentsline {chapter}{\chapternumberline {2}The name ``error function"}{1}{chapter.2}}
\@writefile{toc}{\contentsline {chapter}{\chapternumberline {3}Properties}{1}{chapter.3}}
\@writefile{lof}{\contentsline {figure}{\numberline {1}{\ignorespaces This is an example of the error function. It is calculated by its differential equation.}}{2}{figure.3.1}}
\newlabel{fig:erf}{{\M@TitleReference {1}{This is an example of the error function. It is calculated by its differential equation.}}{2}{This is an example of the error function. It is calculated by its differential equation}{figure.3.1}{}}
\newlabel{fig:erf@cref}{{[figure][1][]1}{2}}
\memsetcounter{lastsheet}{2}
\memsetcounter{lastpage}{2}
