\relax 
\providecommand\hyper@newdestlabel[2]{}
\@writefile{toc}{\contentsline {chapter}{\chapternumberline {1}A Brief Introduction}{2}{chapter.1}}
\newlabel{ch:introduction}{{\M@TitleReference {1}{A Brief Introduction}}{2}{A Brief Introduction}{chapter.1}{}}
\newlabel{ch:introduction@cref}{{[chapter][1][]1}{2}}
\newlabel{eq:complementary}{{\M@TitleReference {3}{A Brief Introduction}}{2}{A Brief Introduction}{equation.1.0.3}{}}
\newlabel{eq:complementary@cref}{{[equation][3][]3}{2}}
\@writefile{toc}{\contentsline {chapter}{\chapternumberline {2}Implementation}{2}{chapter.2}}
\@writefile{toc}{\contentsline {section}{\numberline {2.1}The $\qopname  \relax o{arctan}(x)$ function}{2}{section.2.1}}
\newlabel{eq:positive_x_at}{{\M@TitleReference {4}{The $\qopname  \relax o{arctan}(x)$ function}}{2}{The $\arctan (x)$ function}{equation.2.1.4}{}}
\newlabel{eq:positive_x_at@cref}{{[equation][4][]4}{2}}
\citation{wiki}
\@writefile{toc}{\contentsline {section}{\numberline {2.2}The $\arccot  (x)$ function}{3}{section.2.2}}
\newlabel{eq:positive_x_ac}{{\M@TitleReference {5}{The $\arccot  (x)$ function}}{3}{The $\arccot (x)$ function}{equation.2.2.5}{}}
\newlabel{eq:positive_x_ac@cref}{{[equation][5][]5}{3}}
\@writefile{toc}{\contentsline {section}{\numberline {2.3}Mutual recursive}{3}{section.2.3}}
\@writefile{toc}{\contentsline {chapter}{\chapternumberline {3}Result}{3}{chapter.3}}
\@writefile{lof}{\contentsline {figure}{\numberline {1}{\ignorespaces The plot of the $\qopname  \relax o{arctan}(x)$ function: Both the new implementation (points) and the result in \texttt  {math.h} (lines).}}{4}{figure.3.1}}
\newlabel{fig:arctan}{{\M@TitleReference {1}{The plot of the $\qopname  \relax o{arctan}(x)$ function: Both the new implementation (points) and the result in \texttt  {math.h} (lines).}}{4}{The plot of the $\arctan (x)$ function: Both the new implementation (points) and the result in \texttt {math.h} (lines)}{figure.3.1}{}}
\newlabel{fig:arctan@cref}{{[figure][1][]1}{4}}
\@writefile{lof}{\contentsline {figure}{\numberline {2}{\ignorespaces The plot of the $\arccot  (x)$ function: Both the new implementation (points) and the result in \texttt  {math.h} (lines).}}{5}{figure.3.2}}
\newlabel{fig:arccot}{{\M@TitleReference {2}{The plot of the $\arccot  (x)$ function: Both the new implementation (points) and the result in \texttt  {math.h} (lines).}}{5}{The plot of the $\arccot (x)$ function: Both the new implementation (points) and the result in \texttt {math.h} (lines)}{figure.3.2}{}}
\newlabel{fig:arccot@cref}{{[figure][2][]2}{5}}
\@setckpt{introduction}{
\setcounter{page}{6}
\setcounter{equation}{6}
\setcounter{enumi}{0}
\setcounter{enumii}{0}
\setcounter{enumiii}{0}
\setcounter{enumiv}{0}
\setcounter{footnote}{0}
\setcounter{mpfootnote}{0}
\setcounter{@memmarkcntra}{0}
\setcounter{storedpagenumber}{1}
\setcounter{book}{0}
\setcounter{part}{0}
\setcounter{chapter}{3}
\setcounter{section}{0}
\setcounter{subsection}{0}
\setcounter{subsubsection}{0}
\setcounter{paragraph}{0}
\setcounter{subparagraph}{0}
\setcounter{@ppsavesec}{0}
\setcounter{@ppsaveapp}{0}
\setcounter{vslineno}{0}
\setcounter{poemline}{0}
\setcounter{modulo@vs}{0}
\setcounter{memfvsline}{0}
\setcounter{verse}{0}
\setcounter{chrsinstr}{0}
\setcounter{poem}{0}
\setcounter{newflo@tctr}{4}
\setcounter{@contsubnum}{0}
\setcounter{maxsecnumdepth}{1}
\setcounter{sidefootnote}{0}
\setcounter{pagenote}{0}
\setcounter{pagenoteshadow}{0}
\setcounter{memfbvline}{0}
\setcounter{bvlinectr}{0}
\setcounter{cp@cntr}{0}
\setcounter{ism@mctr}{0}
\setcounter{xsm@mctr}{0}
\setcounter{csm@mctr}{0}
\setcounter{ksm@mctr}{0}
\setcounter{xksm@mctr}{0}
\setcounter{cksm@mctr}{0}
\setcounter{msm@mctr}{0}
\setcounter{xmsm@mctr}{0}
\setcounter{cmsm@mctr}{0}
\setcounter{bsm@mctr}{0}
\setcounter{workm@mctr}{0}
\setcounter{sheetsequence}{6}
\setcounter{lastsheet}{6}
\setcounter{lastpage}{6}
\setcounter{figure}{2}
\setcounter{lofdepth}{1}
\setcounter{table}{0}
\setcounter{lotdepth}{1}
\setcounter{parentequation}{0}
\setcounter{Item}{0}
\setcounter{Hfootnote}{0}
\setcounter{memhycontfloat}{0}
\setcounter{Hpagenote}{0}
\setcounter{bookmark@seq@number}{6}
\setcounter{lstnumber}{5}
\setcounter{section@level}{1}
\setcounter{lstlisting}{0}
}
