\relax 
\providecommand\hyper@newdestlabel[2]{}
\providecommand*{\memsetcounter}[2]{}
\providecommand\HyperFirstAtBeginDocument{\AtBeginDocument}
\HyperFirstAtBeginDocument{\ifx\hyper@anchor\@undefined
\global\let\oldcontentsline\contentsline
\gdef\contentsline#1#2#3#4{\oldcontentsline{#1}{#2}{#3}}
\global\let\oldnewlabel\newlabel
\gdef\newlabel#1#2{\newlabelxx{#1}#2}
\gdef\newlabelxx#1#2#3#4#5#6{\oldnewlabel{#1}{{#2}{#3}}}
\AtEndDocument{\ifx\hyper@anchor\@undefined
\let\contentsline\oldcontentsline
\let\newlabel\oldnewlabel
\fi}
\fi}
\global\let\hyper@last\relax 
\gdef\HyperFirstAtBeginDocument#1{#1}
\providecommand*\HyPL@Entry[1]{}
\HyPL@Entry{0<</S/D>>}
\@input{body.aux}
\@writefile{toc}{\contentsline {appendix}{\chapternumberline {A}The \texttt  {my\_arcs.c} Code}{6}{appendix.A}}
\@writefile{lol}{\contentsline {lstlisting}{my\textunderscore arcs.c}{6}{lstlisting.A.-7}}
\bibcite{wiki}{1}
\@writefile{toc}{\contentsline {chapter}{Bibliography}{8}{section*.2}}
\memsetcounter{lastsheet}{8}
\memsetcounter{lastpage}{8}
