

Integrating function defined as:

def f1(x):
    return np.sin(x[0]) * x[1]


Integrating  from [0 0] to [1.5707963267948966, 3.141592653589793] ...

Done.

---------------------------------------------
Result:
---------------------------------------------
Sampling, N:		1000
Integral:		5.176590172854074
Exact:			4.934802200544679
Estimated error:	0.1301308234155906
Actual error:		0.2417879723093952
Time used:		0.0662
---------------------------------------------


Integrating function defined as:

def f2(x):
    if x[0]*x[0] + x[1]*x[1] < 1:
        return 1
    else:
        return 0


Integrating  from [0 0] to [1, 1] ...

Done.

---------------------------------------------
Result:
---------------------------------------------
Sampling, N:		50000
Integral:		0.78228
Exact:			0.7853981633974483
Estimated error:	0.0018456326915180063
Actual error:		0.0031181633974483036
Time used:		1.2
---------------------------------------------


Integrating function defined as:

def f3(x):
    return (1/(1 - np.cos(x[0])*np.cos(x[1])*np.cos(x[2])))/np.pi**3


Integrating  from [0 0 0] to [3.141592653589793, 3.141592653589793, 3.141592653589793] ...

Done.

---------------------------------------------
Result:
---------------------------------------------
Sampling, N:		100000
Integral:		1.413336378371441
Exact:			1.3932039296856769
Estimated error:	0.021526205410581624
Actual error:		0.020132448685764137
Time used:		3.4
---------------------------------------------


The total time used for part A:	4.66424822807312
